Verilog/dumps/tb_division_top.vcd
$date
	Tue Mar 17 23:27:43 2026
$end
$version
	Icarus Verilog
$end
$timescale
	1ps
$end
$scope module tb_division_top $end
$var wire 1 ! valid_op_d $end
$var wire 32 " rd [31:0] $end
$var reg 1 # clk $end
$var reg 1 $ enable $end
$var reg 3 % funct3 [2:0] $end
$var reg 32 & rs1 [31:0] $end
$var reg 32 ' rs2 [31:0] $end
$scope module uut $end
$var wire 1 # clk $end
$var wire 1 $ enable $end
$var wire 3 ( funct3 [2:0] $end
$var wire 1 ) result_neg $end
$var wire 32 * rs1 [31:0] $end
$var wire 32 + rs2 [31:0] $end
$var wire 1 , signA_neg $end
$var wire 1 - signB_neg $end
$var wire 1 . valid_op $end
$var wire 32 / remainder_signed [31:0] $end
$var wire 32 0 remainder_mag [31:0] $end
$var wire 32 1 quotient_signed [31:0] $end
$var wire 32 2 quotient_mag [31:0] $end
$var wire 32 3 opB_mag [31:0] $end
$var wire 32 4 opA_mag [31:0] $end
$var reg 32 5 rd [31:0] $end
$var reg 1 6 select_remainder $end
$var reg 1 7 signA $end
$var reg 1 8 signB $end
$var reg 1 ! valid_op_d $end
$scope module u_divider $end
$var wire 32 9 A [31:0] $end
$var wire 32 : B [31:0] $end
$var wire 1 # clk $end
$var wire 1 $ enable $end
$var reg 64 ; AQ [63:0] $end
$var reg 32 < M [31:0] $end
$var reg 32 = Q [31:0] $end
$var reg 32 > Quotient [31:0] $end
$var reg 32 ? Remainder [31:0] $end
$var reg 5 @ count [4:0] $end
$var reg 32 A rem [31:0] $end
$var reg 64 B tempAQ [63:0] $end
$var reg 1 . valid_op $end
$upscope $end
$upscope $end
$upscope $end
$enddefinitions $end
$comment Show the parameter values. $end
$dumpall
$end
#0
$dumpvars
bx B
bx A
b0 @
bx ?
bx >
bx =
bx <
bx ;
bx :
bx 9
x8
x7
x6
bx 5
bx 4
bx 3
bx 2
bx 1
bx 0
bx /
0.
x-
x,
bx +
bx *
x)
bx (
bx '
bx &
bx %
0$
0#
bx "
x!
$end
#7000
b0 A
b0 B
b0 =
b0 <
b0 ;
0!
1#
#14000
0#
#20000
1)
b10010 3
b10010 :
0-
b110 4
b110 9
1,
06
18
17
1$
b100 %
b100 (
b10010 '
b10010 +
b11111111111111111111111111111010 &
b11111111111111111111111111111010 *
#21000
b0 /
b0 1
b1 @
b10010 <
b110 ;
b0 0
b0 ?
b0 2
b0 >
1#
#28000
0#
#35000
b10 @
b11000 ;
b11000 B
1#
#42000
0#
#49000
b11 @
b1100000 ;
b1100000 B
1#
#56000
0#
#63000
b100 @
b110000000 ;
b110000000 B
1#
#70000
0#
#77000
b101 @
b11000000000 ;
b11000000000 B
1#
#84000
0#
#91000
b110 @
b1100000000000 ;
b1100000000000 B
1#
#98000
0#
#105000
b111 @
b110000000000000 ;
b110000000000000 B
1#
#112000
0#
#119000
b1000 @
b11000000000000000 ;
b11000000000000000 B
1#
#126000
0#
#133000
b1001 @
b1100000000000000000 ;
b1100000000000000000 B
1#
#140000
0#
#147000
b1010 @
b110000000000000000000 ;
b110000000000000000000 B
1#
#154000
0#
#161000
b1011 @
b11000000000000000000000 ;
b11000000000000000000000 B
1#
#168000
0#
#175000
b1100 @
b1100000000000000000000000 ;
b1100000000000000000000000 B
1#
#182000
0#
#189000
b1101 @
b110000000000000000000000000 ;
b110000000000000000000000000 B
1#
#196000
0#
#203000
b1110 @
b11000000000000000000000000000 ;
b11000000000000000000000000000 B
1#
#210000
0#
#217000
b1111 @
b1100000000000000000000000000000 ;
b1100000000000000000000000000000 B
1#
#224000
0#
#231000
b10000 @
b110000000000000000000000000000000 ;
b1 A
b110000000000000000000000000000000 B
1#
#238000
0#
#245000
b10001 @
b11000000000000000000000000000000000 ;
b110 A
b11000000000000000000000000000000000 B
1#
#252000
0#
#259000
b11111111111111111111111111111010 /
b0 @
b110 0
b110 ?
1.
1#
#266000
0#
#273000
b0 /
0$
b0 "
b0 5
1!
b1 @
b110 ;
b0 0
b0 ?
0.
1#
#280000
0#
#287000
b0 A
b0 B
b0 @
b0 <
b0 ;
0!
1#
#293000
0)
b11111111111111111111111111111010 4
b11111111111111111111111111111010 9
0,
08
07
1$
b101 %
b101 (
#294000
0#
#301000
b1 @
b10010 <
b11111111111111111111111111111010 ;
1#
#308000
0#
#315000
b10 @
b1111111111111111111111111111101000 ;
b11 A
b1111111111111111111111111111101000 B
1#
#322000
0#
#329000
b11 @
b111111111111111111111111111110100000 ;
b1111 A
b111111111111111111111111111110100000 B
1#
#336000
0#
#343000
b100 @
b100111111111111111111111111010000000 ;
b11 =
b1001 A
b100111111111111111111111111010000000 B
1#
#350000
0#
#357000
b101 @
b1111111111111111111111101000000000 ;
b1110 =
b11 A
b1111111111111111111111101000000000 B
1#
#364000
0#
#371000
b110 @
b111111111111111111111110100000000000 ;
b111000 =
b1111 A
b111111111111111111111110100000000000 B
1#
#378000
0#
#385000
b111 @
b100111111111111111111010000000000000 ;
b11100011 =
b1001 A
b100111111111111111111010000000000000 B
1#
#392000
0#
#399000
b1000 @
b1111111111111111101000000000000000 ;
b1110001110 =
b11 A
b1111111111111111101000000000000000 B
1#
#406000
0#
#413000
b1001 @
b111111111111111110100000000000000000 ;
b111000111000 =
b1111 A
b111111111111111110100000000000000000 B
1#
#420000
0#
#427000
b1010 @
b100111111111111010000000000000000000 ;
b11100011100011 =
b1001 A
b100111111111111010000000000000000000 B
1#
#434000
0#
#441000
b1011 @
b1111111111101000000000000000000000 ;
b1110001110001110 =
b11 A
b1111111111101000000000000000000000 B
1#
#448000
0#
#455000
b1100 @
b111111111110100000000000000000000000 ;
b111000111000111000 =
b1111 A
b111111111110100000000000000000000000 B
1#
#462000
0#
#469000
b1101 @
b100111111010000000000000000000000000 ;
b11100011100011100011 =
b1001 A
b100111111010000000000000000000000000 B
1#
#476000
0#
#483000
b1110 @
b1111101000000000000000000000000000 ;
b1110001110001110001110 =
b11 A
b1111101000000000000000000000000000 B
1#
#490000
0#
#497000
b1111 @
b111110100000000000000000000000000000 ;
b111000111000111000111000 =
b1111 A
b111110100000000000000000000000000000 B
1#
#504000
0#
#511000
b10000 @
b100010000000000000000000000000000000 ;
b11100011100011100011100011 =
b1000 A
b100010000000000000000000000000000000 B
1#
#518000
0#
#525000
b10001 @
b1000000000000000000000000000000000000 ;
b1110001110001110001110001101 =
b10000 A
b1000000000000000000000000000000000000 B
1#
#532000
0#
#539000
b10000 /
b1110001110001110001110001101 1
b0 @
b10000 0
b10000 ?
b1110001110001110001110001101 2
b1110001110001110001110001101 >
1.
1#
#546000
0#
#553000
0$
b0 /
b0 1
b1110001110001110001110001101 "
b1110001110001110001110001101 5
1!
b1 @
b0 =
b11111111111111111111111111111010 ;
b0 0
b0 ?
b0 2
b0 >
0.
1#
#560000
0#
#567000
b0 A
b0 B
b0 @
b0 <
b0 ;
0!
1#
#573000
1)
b110 4
b110 9
1,
16
18
17
1$
b110 %
b110 (
#574000
0#
#581000
b1 @
b10010 <
b110 ;
1#
#588000
0#
#595000
b10 @
b11000 ;
b11000 B
1#
#602000
0#
#609000
b11 @
b1100000 ;
b1100000 B
1#
#616000
0#
#623000
b100 @
b110000000 ;
b110000000 B
1#
#630000
0#
#637000
b101 @
b11000000000 ;
b11000000000 B
1#
#644000
0#
#651000
b110 @
b1100000000000 ;
b1100000000000 B
1#
#658000
0#
#665000
b111 @
b110000000000000 ;
b110000000000000 B
1#
#672000
0#
#679000
b1000 @
b11000000000000000 ;
b11000000000000000 B
1#
#686000
0#
#693000
b1001 @
b1100000000000000000 ;
b1100000000000000000 B
1#
#700000
0#
#707000
b1010 @
b110000000000000000000 ;
b110000000000000000000 B
1#
#714000
0#
#721000
b1011 @
b11000000000000000000000 ;
b11000000000000000000000 B
1#
#728000
0#
#735000
b1100 @
b1100000000000000000000000 ;
b1100000000000000000000000 B
1#
#742000
0#
#749000
b1101 @
b110000000000000000000000000 ;
b110000000000000000000000000 B
1#
#756000
0#
#763000
b1110 @
b11000000000000000000000000000 ;
b11000000000000000000000000000 B
1#
#770000
0#
#777000
b1111 @
b1100000000000000000000000000000 ;
b1100000000000000000000000000000 B
1#
#784000
0#
#791000
b10000 @
b110000000000000000000000000000000 ;
b1 A
b110000000000000000000000000000000 B
1#
#798000
0#
#805000
b10001 @
b11000000000000000000000000000000000 ;
b110 A
b11000000000000000000000000000000000 B
1#
#812000
0#
#819000
b11111111111111111111111111111010 /
b0 @
b110 0
b110 ?
1.
1#
#826000
0#
#833000
b0 /
0$
b11111111111111111111111111111010 "
b11111111111111111111111111111010 5
1!
b1 @
b110 ;
b0 0
b0 ?
0.
1#
#840000
0#
#847000
b0 A
b0 B
b0 @
b0 <
b0 ;
0!
1#
#853000
0)
b11111111111111111111111111111010 4
b11111111111111111111111111111010 9
0,
16
08
07
1$
b111 %
b111 (
#854000
0#
#861000
b1 @
b10010 <
b11111111111111111111111111111010 ;
1#
#868000
0#
#875000
b10 @
b1111111111111111111111111111101000 ;
b11 A
b1111111111111111111111111111101000 B
1#
#882000
0#
#889000
b11 @
b111111111111111111111111111110100000 ;
b1111 A
b111111111111111111111111111110100000 B
1#
#896000
0#
#903000
b100 @
b100111111111111111111111111010000000 ;
b11 =
b1001 A
b100111111111111111111111111010000000 B
1#
#910000
0#
#917000
b101 @
b1111111111111111111111101000000000 ;
b1110 =
b11 A
b1111111111111111111111101000000000 B
1#
#924000
0#
#931000
b110 @
b111111111111111111111110100000000000 ;
b111000 =
b1111 A
b111111111111111111111110100000000000 B
1#
#938000
0#
#945000
b111 @
b100111111111111111111010000000000000 ;
b11100011 =
b1001 A
b100111111111111111111010000000000000 B
1#
#952000
0#
#959000
b1000 @
b1111111111111111101000000000000000 ;
b1110001110 =
b11 A
b1111111111111111101000000000000000 B
1#
#966000
0#
#973000
b1001 @
b111111111111111110100000000000000000 ;
b111000111000 =
b1111 A
b111111111111111110100000000000000000 B
1#
#980000
0#
#987000
b1010 @
b100111111111111010000000000000000000 ;
b11100011100011 =
b1001 A
b100111111111111010000000000000000000 B
1#
#994000
0#
#1001000
b1011 @
b1111111111101000000000000000000000 ;
b1110001110001110 =
b11 A
b1111111111101000000000000000000000 B
1#
#1008000
0#
#1015000
b1100 @
b111111111110100000000000000000000000 ;
b111000111000111000 =
b1111 A
b111111111110100000000000000000000000 B
1#
#1022000
0#
#1029000
b1101 @
b100111111010000000000000000000000000 ;
b11100011100011100011 =
b1001 A
b100111111010000000000000000000000000 B
1#
#1036000
0#
#1043000
b1110 @
b1111101000000000000000000000000000 ;
b1110001110001110001110 =
b11 A
b1111101000000000000000000000000000 B
1#
#1050000
0#
#1057000
b1111 @
b111110100000000000000000000000000000 ;
b111000111000111000111000 =
b1111 A
b111110100000000000000000000000000000 B
1#
#1064000
0#
#1071000
b10000 @
b100010000000000000000000000000000000 ;
b11100011100011100011100011 =
b1000 A
b100010000000000000000000000000000000 B
1#
#1078000
0#
#1085000
b10001 @
b1000000000000000000000000000000000000 ;
b1110001110001110001110001101 =
b10000 A
b1000000000000000000000000000000000000 B
1#
#1092000
0#
#1099000
b10000 /
b1110001110001110001110001101 1
b0 @
b10000 0
b10000 ?
b1110001110001110001110001101 2
b1110001110001110001110001101 >
1.
1#
#1106000
0#
#1113000
0$
b0 /
b0 1
b10000 "
b10000 5
1!
b1 @
b0 =
b11111111111111111111111111111010 ;
b0 0
b0 ?
b0 2
b0 >
0.
1#
#1120000
0#
#1127000
b0 A
b0 B
b0 @
b0 <
b0 ;
0!
1#
