Verilog/dumps/tb_division_top.vcd
$date
	Sat Apr 18 01:41:37 2026
$end
$version
	Icarus Verilog
$end
$timescale
	1ps
$end
$scope module tb_division_top $end
$var wire 1 ! valid_op_d $end
$var wire 32 " rd [31:0] $end
$var reg 1 # clk $end
$var reg 1 $ enable $end
$var reg 3 % funct3 [2:0] $end
$var reg 32 & rs1 [31:0] $end
$var reg 32 ' rs2 [31:0] $end
$scope module uut $end
$var wire 1 # clk $end
$var wire 1 $ enable $end
$var wire 3 ( funct3 [2:0] $end
$var wire 1 ) internal_enable $end
$var wire 1 * result_neg $end
$var wire 32 + rs1 [31:0] $end
$var wire 32 , rs2 [31:0] $end
$var wire 1 - signA_neg $end
$var wire 1 . signB_neg $end
$var wire 1 / valid_op $end
$var wire 32 0 rs2_in [31:0] $end
$var wire 32 1 rs1_in [31:0] $end
$var wire 32 2 remainder_signed [31:0] $end
$var wire 32 3 remainder_mag [31:0] $end
$var wire 32 4 quotient_signed [31:0] $end
$var wire 32 5 quotient_mag [31:0] $end
$var wire 32 6 opB_mag [31:0] $end
$var wire 32 7 opA_mag [31:0] $end
$var wire 3 8 funct3_in [2:0] $end
$var reg 1 9 enable_hold $end
$var reg 3 : lat_funct3 [2:0] $end
$var reg 32 ; lat_rs1 [31:0] $end
$var reg 32 < lat_rs2 [31:0] $end
$var reg 1 = latched $end
$var reg 32 > rd [31:0] $end
$var reg 1 ? select_remainder $end
$var reg 1 @ signA $end
$var reg 1 A signB $end
$var reg 1 ! valid_op_d $end
$scope module u_divider $end
$var wire 32 B A [31:0] $end
$var wire 32 C B [31:0] $end
$var wire 32 D Q_next [31:0] $end
$var wire 1 # clk $end
$var wire 1 ) enable $end
$var wire 1 E sel1 $end
$var wire 1 F sel2 $end
$var wire 64 G shifted [63:0] $end
$var wire 1 H sel3 $end
$var wire 32 I rem_top [31:0] $end
$var wire 33 J rem_next [32:0] $end
$var wire 33 K rem33 [32:0] $end
$var wire 2 L q_bits [1:0] $end
$var wire 33 M M33 [32:0] $end
$var wire 33 N M3 [32:0] $end
$var wire 33 O M2 [32:0] $end
$var wire 64 P AQ_next [63:0] $end
$var reg 64 Q AQ [63:0] $end
$var reg 32 R M [31:0] $end
$var reg 32 S Q [31:0] $end
$var reg 32 T Quotient [31:0] $end
$var reg 32 U Remainder [31:0] $end
$var reg 5 V count [4:0] $end
$var reg 1 / valid_op $end
$upscope $end
$upscope $end
$upscope $end
$enddefinitions $end
$comment Show the parameter values. $end
$dumpall
$end
#0
$dumpvars
bx V
bx U
bx T
bx S
bx R
bx Q
bx00 P
bx0 O
bx N
b0xxxxxxxxxxxxxxxxxxxxxxxxxxxxxxxx M
bx L
b0xxxxxxxxxxxxxxxxxxxxxxxxxxxxxxxx K
bx J
bx I
xH
bx00 G
xF
xE
bx D
bx C
bx B
0A
0@
0?
bx >
0=
bx <
bx ;
bx :
09
bx 8
bx 7
bx 6
bx 5
bx 4
bx 3
bx 2
bx 1
bx 0
x/
0.
0-
bx ,
bx +
0*
0)
bx (
bx '
bx &
bx %
0$
0#
bx "
x!
$end
#7000
0E
0F
b11 L
b0 J
b11 D
1H
b0 K
b0 I
b0 P
b0 N
b0 O
b0 G
b0 V
b0 S
b0 M
b0 R
b0 Q
0/
0!
1#
#14000
0#
#20000
1*
1-
1A
1@
b10010 6
b10010 C
b110 7
b110 B
1)
b100 8
b10010 0
b11111111111111111111111111111010 1
1$
b100 %
b100 (
b10010 '
b10010 ,
b11111111111111111111111111111010 &
b11111111111111111111111111111010 +
#21000
b0 D
b11000 P
b0 2
b0 4
b100100 O
b0 L
b11000 G
1=
b100 :
b10010 <
b11111111111111111111111111111010 ;
b1 V
0H
b110110 N
b10010 M
b10010 R
b110 Q
b0 3
b0 U
b0 5
b0 T
1#
#28000
0#
#35000
b1100000 P
b1100000 G
b10 V
b11000 Q
1#
#42000
0#
#49000
b110000000 P
b110000000 G
b11 V
b1100000 Q
1#
#56000
0#
#63000
b11000000000 P
b11000000000 G
b100 V
b110000000 Q
1#
#70000
0#
#77000
b1100000000000 P
b1100000000000 G
b101 V
b11000000000 Q
1#
#84000
0#
#91000
b110000000000000 P
b110000000000000 G
b110 V
b1100000000000 Q
1#
#98000
0#
#105000
b11000000000000000 P
b11000000000000000 G
b111 V
b110000000000000 Q
1#
#112000
0#
#119000
b1100000000000000000 P
b1100000000000000000 G
b1000 V
b11000000000000000 Q
1#
#126000
0#
#133000
b110000000000000000000 P
b110000000000000000000 G
b1001 V
b1100000000000000000 Q
1#
#140000
0#
#147000
b11000000000000000000000 P
b11000000000000000000000 G
b1010 V
b110000000000000000000 Q
1#
#154000
0#
#161000
b1100000000000000000000000 P
b1100000000000000000000000 G
b1011 V
b11000000000000000000000 Q
1#
#168000
0#
#175000
b110000000000000000000000000 P
b110000000000000000000000000 G
b1100 V
b1100000000000000000000000 Q
1#
#182000
0#
#189000
b11000000000000000000000000000 P
b11000000000000000000000000000 G
b1101 V
b110000000000000000000000000 Q
1#
#196000
0#
#203000
b1100000000000000000000000000000 P
b1100000000000000000000000000000 G
b1110 V
b11000000000000000000000000000 Q
1#
#210000
0#
#217000
b1 J
b1 K
b1 I
b110000000000000000000000000000000 P
b110000000000000000000000000000000 G
b1111 V
b1100000000000000000000000000000 Q
1#
#224000
0#
#231000
b110 J
b110 K
b110 I
b11000000000000000000000000000000000 P
b11000000000000000000000000000000000 G
b10000 V
b110000000000000000000000000000000 Q
1#
#238000
0#
#245000
b1 D
b1 L
b11000000000000000000000000000000000 P
b110 J
1E
b11000 K
b11000 I
b1100000000000000000000000000000000000 G
b10001 V
b11000000000000000000000000000000000 Q
1#
#252000
0#
#259000
b11111111111111111111111111111010 2
b0 V
b110 3
b110 U
1/
1#
#266000
0#
#273000
b0 D
b0 L
0*
b11111111111111111111111111111010 7
b11111111111111111111111111111010 B
b0 J
0-
0A
0@
0E
0)
b0 K
b0 I
b11000 P
b0 2
0$
b11000 G
b0 "
b0 >
1!
b1 V
b110 Q
b0 3
b0 U
0/
1#
#280000
0#
#287000
b11 D
b11 L
0F
b0 P
1H
b0 O
0E
b0 G
b0 V
b0 N
b0 M
b0 R
b0 Q
19
0=
0!
1#
#293000
b101 8
1$
b101 %
b101 (
#294000
0#
#301000
1)
1=
b101 :
09
1#
#308000
0#
#315000
b11 J
b0 D
b11 K
b11 I
b1111111111111111111111111111101000 P
b100100 O
b0 L
b1111111111111111111111111111101000 G
b1 V
0H
b110110 N
b10010 M
b10010 R
b11111111111111111111111111111010 Q
1#
#322000
0#
#329000
b1111 J
b1111 K
b1111 I
b111111111111111111111111111110100000 P
b111111111111111111111111111110100000 G
b10 V
b1111111111111111111111111111101000 Q
1#
#336000
0#
#343000
b11 D
b1001 J
b11 L
0F
0E
1H
b111111 K
b111111 I
b100111111111111111111111111010000000 P
b11111111111111111111111111111010000000 G
b11 V
b111111111111111111111111111110100000 Q
1#
#350000
0#
#357000
0E
1F
b10 L
b11 J
b1110 D
0H
b100111 K
b100111 I
b1111111111111111111111101000000000 P
b10011111111111111111111111101000000000 G
b100 V
b11 S
b100111111111111111111111111010000000 Q
1#
#364000
0#
#371000
b0 L
b1111 J
0F
b111000 D
b1111 K
b1111 I
b111111111111111111111110100000000000 P
b111111111111111111111110100000000000 G
b101 V
b1110 S
b1111111111111111111111101000000000 Q
1#
#378000
0#
#385000
b1001 J
b11 L
0F
0E
b11100011 D
1H
b111111 K
b111111 I
b100111111111111111111010000000000000 P
b11111111111111111111111010000000000000 G
b110 V
b111000 S
b111111111111111111111110100000000000 Q
1#
#392000
0#
#399000
0E
1F
b10 L
b11 J
b1110001110 D
0H
b100111 K
b100111 I
b1111111111111111101000000000000000 P
b10011111111111111111101000000000000000 G
b111 V
b11100011 S
b100111111111111111111010000000000000 Q
1#
#406000
0#
#413000
b0 L
b1111 J
0F
b111000111000 D
b1111 K
b1111 I
b111111111111111110100000000000000000 P
b111111111111111110100000000000000000 G
b1000 V
b1110001110 S
b1111111111111111101000000000000000 Q
1#
#420000
0#
#427000
b1001 J
b11 L
0F
0E
b11100011100011 D
1H
b111111 K
b111111 I
b100111111111111010000000000000000000 P
b11111111111111111010000000000000000000 G
b1001 V
b111000111000 S
b111111111111111110100000000000000000 Q
1#
#434000
0#
#441000
0E
1F
b10 L
b11 J
b1110001110001110 D
0H
b100111 K
b100111 I
b1111111111101000000000000000000000 P
b10011111111111101000000000000000000000 G
b1010 V
b11100011100011 S
b100111111111111010000000000000000000 Q
1#
#448000
0#
#455000
b0 L
b1111 J
0F
b111000111000111000 D
b1111 K
b1111 I
b111111111110100000000000000000000000 P
b111111111110100000000000000000000000 G
b1011 V
b1110001110001110 S
b1111111111101000000000000000000000 Q
1#
#462000
0#
#469000
b1001 J
b11 L
0F
0E
b11100011100011100011 D
1H
b111111 K
b111111 I
b100111111010000000000000000000000000 P
b11111111111010000000000000000000000000 G
b1100 V
b111000111000111000 S
b111111111110100000000000000000000000 Q
1#
#476000
0#
#483000
0E
1F
b10 L
b11 J
b1110001110001110001110 D
0H
b100111 K
b100111 I
b1111101000000000000000000000000000 P
b10011111101000000000000000000000000000 G
b1101 V
b11100011100011100011 S
b100111111010000000000000000000000000 Q
1#
#490000
0#
#497000
b0 L
b1111 J
0F
b111000111000111000111000 D
b1111 K
b1111 I
b111110100000000000000000000000000000 P
b111110100000000000000000000000000000 G
b1110 V
b1110001110001110001110 S
b1111101000000000000000000000000000 Q
1#
#504000
0#
#511000
b1000 J
b11 L
0F
0E
b11100011100011100011100011 D
1H
b111110 K
b111110 I
b100010000000000000000000000000000000 P
b11111010000000000000000000000000000000 G
b1111 V
b111000111000111000111000 S
b111110100000000000000000000000000000 Q
1#
#518000
0#
#525000
1E
b1 L
b10000 J
b1110001110001110001110001101 D
0H
b100010 K
b100010 I
b1000000000000000000000000000000000000 P
b10001000000000000000000000000000000000 G
b10000 V
b11100011100011100011100011 S
b100010000000000000000000000000000000 Q
1#
#532000
0#
#539000
0E
b101000000000000000000000000000000000 P
b1010 J
b11 L
0F
b111000111000111000111000110111 D
1H
b1000000 K
b1000000 I
b100000000000000000000000000000000000000 G
b10001 V
b1110001110001110001110001101 S
b1000000000000000000000000000000000000 Q
1#
#546000
0#
#553000
b10000 2
b1110001110001110001110001101 4
b0 V
b10000 3
b10000 U
b1110001110001110001110001101 5
b1110001110001110001110001101 T
1/
1#
#560000
0#
#567000
b0 L
b11 J
b0 D
0H
b11 K
b11 I
b1111111111111111111111111111101000 P
0)
b1111111111111111111111111111101000 G
b0 2
b0 4
0$
b1 V
b0 S
b11111111111111111111111111111010 Q
b0 3
b0 U
b0 5
b0 T
0/
b1110001110001110001110001101 "
b1110001110001110001110001101 >
1!
1#
#574000
0#
#581000
b11 D
b0 J
b11 L
0F
b0 K
b0 I
b0 P
1H
b0 O
0E
b0 G
0!
0=
19
b0 V
b0 N
b0 M
b0 R
b0 Q
1#
#587000
b110 8
1$
b110 %
b110 (
#588000
0#
#595000
1*
b110 7
b110 B
1-
1?
1A
1@
1)
09
1=
b110 :
1#
#602000
0#
#609000
b0 D
b11000 P
b100100 O
b0 L
b11000 G
b1 V
0H
b110110 N
b10010 M
b10010 R
b110 Q
1#
#616000
0#
#623000
b1100000 P
b1100000 G
b10 V
b11000 Q
1#
#630000
0#
#637000
b110000000 P
b110000000 G
b11 V
b1100000 Q
1#
#644000
0#
#651000
b11000000000 P
b11000000000 G
b100 V
b110000000 Q
1#
#658000
0#
#665000
b1100000000000 P
b1100000000000 G
b101 V
b11000000000 Q
1#
#672000
0#
#679000
b110000000000000 P
b110000000000000 G
b110 V
b1100000000000 Q
1#
#686000
0#
#693000
b11000000000000000 P
b11000000000000000 G
b111 V
b110000000000000 Q
1#
#700000
0#
#707000
b1100000000000000000 P
b1100000000000000000 G
b1000 V
b11000000000000000 Q
1#
#714000
0#
#721000
b110000000000000000000 P
b110000000000000000000 G
b1001 V
b1100000000000000000 Q
1#
#728000
0#
#735000
b11000000000000000000000 P
b11000000000000000000000 G
b1010 V
b110000000000000000000 Q
1#
#742000
0#
#749000
b1100000000000000000000000 P
b1100000000000000000000000 G
b1011 V
b11000000000000000000000 Q
1#
#756000
0#
#763000
b110000000000000000000000000 P
b110000000000000000000000000 G
b1100 V
b1100000000000000000000000 Q
1#
#770000
0#
#777000
b11000000000000000000000000000 P
b11000000000000000000000000000 G
b1101 V
b110000000000000000000000000 Q
1#
#784000
0#
#791000
b1100000000000000000000000000000 P
b1100000000000000000000000000000 G
b1110 V
b11000000000000000000000000000 Q
1#
#798000
0#
#805000
b1 J
b1 K
b1 I
b110000000000000000000000000000000 P
b110000000000000000000000000000000 G
b1111 V
b1100000000000000000000000000000 Q
1#
#812000
0#
#819000
b110 J
b110 K
b110 I
b11000000000000000000000000000000000 P
b11000000000000000000000000000000000 G
b10000 V
b110000000000000000000000000000000 Q
1#
#826000
0#
#833000
b1 D
b1 L
b11000000000000000000000000000000000 P
b110 J
1E
b11000 K
b11000 I
b1100000000000000000000000000000000000 G
b10001 V
b11000000000000000000000000000000000 Q
1#
#840000
0#
#847000
b11111111111111111111111111111010 2
b0 V
b110 3
b110 U
1/
1#
#854000
0#
#861000
b0 D
b0 L
0*
b11111111111111111111111111111010 7
b11111111111111111111111111111010 B
b0 J
0-
0?
0A
0@
0E
0)
b0 K
b0 I
b11000 P
b0 2
0$
b11000 G
b11111111111111111111111111111010 "
b11111111111111111111111111111010 >
1!
b1 V
b110 Q
b0 3
b0 U
0/
1#
#868000
0#
#875000
b11 D
b11 L
0F
b0 P
1H
b0 O
0E
b0 G
b0 V
b0 N
b0 M
b0 R
b0 Q
19
0=
0!
1#
#881000
b111 8
1$
b111 %
b111 (
#882000
0#
#889000
1?
1)
1=
b111 :
09
1#
#896000
0#
#903000
b11 J
b0 D
b11 K
b11 I
b1111111111111111111111111111101000 P
b100100 O
b0 L
b1111111111111111111111111111101000 G
b1 V
0H
b110110 N
b10010 M
b10010 R
b11111111111111111111111111111010 Q
1#
#910000
0#
#917000
b1111 J
b1111 K
b1111 I
b111111111111111111111111111110100000 P
b111111111111111111111111111110100000 G
b10 V
b1111111111111111111111111111101000 Q
1#
#924000
0#
#931000
b11 D
b1001 J
b11 L
0F
0E
1H
b111111 K
b111111 I
b100111111111111111111111111010000000 P
b11111111111111111111111111111010000000 G
b11 V
b111111111111111111111111111110100000 Q
1#
#938000
0#
#945000
0E
1F
b10 L
b11 J
b1110 D
0H
b100111 K
b100111 I
b1111111111111111111111101000000000 P
b10011111111111111111111111101000000000 G
b100 V
b11 S
b100111111111111111111111111010000000 Q
1#
#952000
0#
#959000
b0 L
b1111 J
0F
b111000 D
b1111 K
b1111 I
b111111111111111111111110100000000000 P
b111111111111111111111110100000000000 G
b101 V
b1110 S
b1111111111111111111111101000000000 Q
1#
#966000
0#
#973000
b1001 J
b11 L
0F
0E
b11100011 D
1H
b111111 K
b111111 I
b100111111111111111111010000000000000 P
b11111111111111111111111010000000000000 G
b110 V
b111000 S
b111111111111111111111110100000000000 Q
1#
#980000
0#
#987000
0E
1F
b10 L
b11 J
b1110001110 D
0H
b100111 K
b100111 I
b1111111111111111101000000000000000 P
b10011111111111111111101000000000000000 G
b111 V
b11100011 S
b100111111111111111111010000000000000 Q
1#
#994000
0#
#1001000
b0 L
b1111 J
0F
b111000111000 D
b1111 K
b1111 I
b111111111111111110100000000000000000 P
b111111111111111110100000000000000000 G
b1000 V
b1110001110 S
b1111111111111111101000000000000000 Q
1#
#1008000
0#
#1015000
b1001 J
b11 L
0F
0E
b11100011100011 D
1H
b111111 K
b111111 I
b100111111111111010000000000000000000 P
b11111111111111111010000000000000000000 G
b1001 V
b111000111000 S
b111111111111111110100000000000000000 Q
1#
#1022000
0#
#1029000
0E
1F
b10 L
b11 J
b1110001110001110 D
0H
b100111 K
b100111 I
b1111111111101000000000000000000000 P
b10011111111111101000000000000000000000 G
b1010 V
b11100011100011 S
b100111111111111010000000000000000000 Q
1#
#1036000
0#
#1043000
b0 L
b1111 J
0F
b111000111000111000 D
b1111 K
b1111 I
b111111111110100000000000000000000000 P
b111111111110100000000000000000000000 G
b1011 V
b1110001110001110 S
b1111111111101000000000000000000000 Q
1#
#1050000
0#
#1057000
b1001 J
b11 L
0F
0E
b11100011100011100011 D
1H
b111111 K
b111111 I
b100111111010000000000000000000000000 P
b11111111111010000000000000000000000000 G
b1100 V
b111000111000111000 S
b111111111110100000000000000000000000 Q
1#
#1064000
0#
#1071000
0E
1F
b10 L
b11 J
b1110001110001110001110 D
0H
b100111 K
b100111 I
b1111101000000000000000000000000000 P
b10011111101000000000000000000000000000 G
b1101 V
b11100011100011100011 S
b100111111010000000000000000000000000 Q
1#
#1078000
0#
#1085000
b0 L
b1111 J
0F
b111000111000111000111000 D
b1111 K
b1111 I
b111110100000000000000000000000000000 P
b111110100000000000000000000000000000 G
b1110 V
b1110001110001110001110 S
b1111101000000000000000000000000000 Q
1#
#1092000
0#
#1099000
b1000 J
b11 L
0F
0E
b11100011100011100011100011 D
1H
b111110 K
b111110 I
b100010000000000000000000000000000000 P
b11111010000000000000000000000000000000 G
b1111 V
b111000111000111000111000 S
b111110100000000000000000000000000000 Q
1#
#1106000
0#
#1113000
1E
b1 L
b10000 J
b1110001110001110001110001101 D
0H
b100010 K
b100010 I
b1000000000000000000000000000000000000 P
b10001000000000000000000000000000000000 G
b10000 V
b11100011100011100011100011 S
b100010000000000000000000000000000000 Q
1#
#1120000
0#
#1127000
0E
b101000000000000000000000000000000000 P
b1010 J
b11 L
0F
b111000111000111000111000110111 D
1H
b1000000 K
b1000000 I
b100000000000000000000000000000000000000 G
b10001 V
b1110001110001110001110001101 S
b1000000000000000000000000000000000000 Q
1#
#1134000
0#
#1141000
b10000 2
b1110001110001110001110001101 4
b0 V
b10000 3
b10000 U
b1110001110001110001110001101 5
b1110001110001110001110001101 T
1/
1#
#1148000
0#
#1155000
b0 L
b11 J
0?
b0 D
0H
b11 K
b11 I
b1111111111111111111111111111101000 P
0)
b1111111111111111111111111111101000 G
b0 2
b0 4
0$
b1 V
b0 S
b11111111111111111111111111111010 Q
b0 3
b0 U
b0 5
b0 T
0/
b10000 "
b10000 >
1!
1#
#1162000
0#
#1169000
b11 D
b0 J
b11 L
0F
b0 K
b0 I
b0 P
1H
b0 O
0E
b0 G
0!
0=
19
b0 V
b0 N
b0 M
b0 R
b0 Q
1#
#1176000
0#
#1183000
09
1#
