Verilog/dumps/tb_qspi_top.vcd
$date
	Sun Apr  5 15:41:16 2026
$end
$version
	Icarus Verilog
$end
$timescale
	1ps
$end
$scope module tb_qspi_top $end
$var wire 4 ! qspi_io [3:0] $end
$var wire 1 " qspi_sck $end
$var wire 1 # qspi_cs_n $end
$var wire 32 $ prdata [31:0] $end
$var wire 1 % done $end
$var reg 1 & clk $end
$var reg 32 ' paddr [31:0] $end
$var reg 1 ( penable $end
$var reg 1 ) psel $end
$var reg 32 * pwdata [31:0] $end
$var reg 1 + pwrite $end
$var reg 1 , resetn $end
$scope function CTRL $end
$var reg 4 - clkdiv [3:0] $end
$var reg 1 . quad $end
$upscope $end
$scope module dut $end
$var wire 1 & clk $end
$var wire 4 / io [3:0] $end
$var wire 8 0 paddr [7:0] $end
$var wire 1 & pclk $end
$var wire 1 ( penable $end
$var wire 1 , presetn $end
$var wire 1 ) psel $end
$var wire 1 1 pslverr $end
$var wire 32 2 pwdata [31:0] $end
$var wire 1 + pwrite $end
$var wire 1 , resetn $end
$var wire 8 3 txfifo_rdata [7:0] $end
$var wire 1 4 txfifo_rd $end
$var wire 1 5 tx_full $end
$var wire 1 6 tx_empty $end
$var wire 8 7 shifter_rdata [7:0] $end
$var wire 1 8 shifter_done $end
$var wire 1 9 shifter_dir $end
$var wire 1 : shifter_data_req $end
$var wire 1 ; shifter_data_ready $end
$var wire 1 < shifter_busy $end
$var wire 1 = sck_rise $end
$var wire 1 > sck_fall $end
$var wire 1 " sck $end
$var wire 1 ? rxfifo_wr $end
$var wire 8 @ rxfifo_wdata [7:0] $end
$var wire 1 A rx_full $end
$var wire 1 B rx_empty $end
$var wire 1 C pready $end
$var wire 32 D prdata [31:0] $end
$var wire 1 % irq_done $end
$var wire 1 E fsm_quad $end
$var wire 1 F fsm_load_chunk $end
$var wire 32 G fsm_chunk_data [31:0] $end
$var wire 6 H fsm_chunk_cycles [5:0] $end
$var wire 16 I csr_xfer_len [15:0] $end
$var wire 1 J csr_tx_wr $end
$var wire 32 K csr_tx_data [31:0] $end
$var wire 1 L csr_start $end
$var wire 1 M csr_rx_rd $end
$var wire 32 N csr_rx_data [31:0] $end
$var wire 1 O csr_quad $end
$var wire 8 P csr_opcode [7:0] $end
$var wire 1 Q csr_enable $end
$var wire 1 R csr_cont_read $end
$var wire 4 S csr_clk_div [3:0] $end
$var wire 1 T csr_auto_wren $end
$var wire 24 U csr_addr [23:0] $end
$var wire 1 # cs_n $end
$scope module clkgen_i $end
$var wire 1 & clk $end
$var wire 1 , resetn $end
$var wire 1 < enable $end
$var wire 4 V div_val [3:0] $end
$var wire 4 W clk_div [3:0] $end
$var reg 4 X div_cnt [3:0] $end
$var reg 1 " sck $end
$var reg 1 > sck_fall $end
$var reg 1 = sck_rise $end
$upscope $end
$scope module csr_i $end
$var wire 8 Y paddr [7:0] $end
$var wire 1 & pclk $end
$var wire 1 ( penable $end
$var wire 1 , presetn $end
$var wire 1 ) psel $end
$var wire 1 1 pslverr $end
$var wire 32 Z pwdata [31:0] $end
$var wire 1 + pwrite $end
$var wire 1 5 tx_full $end
$var wire 1 6 tx_empty $end
$var wire 1 A rx_full $end
$var wire 1 B rx_empty $end
$var wire 32 [ rx_data_in [31:0] $end
$var wire 32 \ prdata [31:0] $end
$var wire 1 % done_in $end
$var reg 24 ] addr [23:0] $end
$var reg 8 ^ addr_latched [7:0] $end
$var reg 1 T auto_wren $end
$var reg 4 _ clk_div [3:0] $end
$var reg 1 R cont_read $end
$var reg 1 ` done_latch $end
$var reg 1 Q enable $end
$var reg 8 a opcode [7:0] $end
$var reg 32 b prdata_r [31:0] $end
$var reg 1 C pready $end
$var reg 1 O quad $end
$var reg 1 M rx_rd $end
$var reg 1 L start $end
$var reg 32 c tx_data_out [31:0] $end
$var reg 1 J tx_wr $end
$var reg 16 d xfer_len [15:0] $end
$upscope $end
$scope module rx_fifo $end
$var wire 5 e a0 [4:0] $end
$var wire 1 & clk $end
$var wire 1 M rd_en $end
$var wire 1 , resetn $end
$var wire 1 ? wr_en $end
$var wire 8 f wr_data [7:0] $end
$var wire 5 g wr_addr [4:0] $end
$var wire 32 h rd_data [31:0] $end
$var wire 5 i rd_addr [4:0] $end
$var wire 1 A full $end
$var wire 1 B empty $end
$var wire 6 j available_bytes [5:0] $end
$var wire 5 k a3 [4:0] $end
$var wire 5 l a2 [4:0] $end
$var wire 5 m a1 [4:0] $end
$var parameter 32 n ADDR_WIDTH $end
$var parameter 32 o DATA_WIDTH $end
$var parameter 32 p DEPTH $end
$var reg 6 q rd_ptr [5:0] $end
$var reg 6 r wr_ptr [5:0] $end
$upscope $end
$scope module shifter_i $end
$var wire 1 & clk $end
$var wire 4 s io [3:0] $end
$var wire 4 t io_in [3:0] $end
$var wire 1 , resetn $end
$var wire 1 > sck_fall $end
$var wire 1 = sck_rise $end
$var wire 1 E quad_tx $end
$var wire 1 E quad_rx $end
$var wire 1 F load_chunk $end
$var wire 1 9 dir_rx $end
$var wire 32 u chunk_data [31:0] $end
$var wire 6 v chunk_cycles [5:0] $end
$var reg 1 < busy $end
$var reg 6 w chunk_cycles_latched [5:0] $end
$var reg 6 x cycles_left [5:0] $end
$var reg 1 ; data_ready $end
$var reg 1 : data_req $end
$var reg 1 8 done $end
$var reg 1 y half_cycle $end
$var reg 1 z io_oe $end
$var reg 4 { io_out [3:0] $end
$var reg 8 | rx_byte [7:0] $end
$var reg 8 } rxbuf [7:0] $end
$var reg 32 ~ shreg [31:0] $end
$upscope $end
$scope module tx_fifo $end
$var wire 1 & clk $end
$var wire 8 !" rd_data [7:0] $end
$var wire 1 , resetn $end
$var wire 32 "" wr_data [31:0] $end
$var wire 1 J wr_en $end
$var wire 5 #" wr_addr [4:0] $end
$var wire 1 4 rd_en $end
$var wire 5 $" rd_addr [4:0] $end
$var wire 1 5 full $end
$var wire 1 6 empty $end
$var parameter 32 %" ADDR_WIDTH $end
$var parameter 32 &" DATA_WIDTH $end
$var parameter 32 '" DEPTH $end
$var reg 6 (" rd_ptr [5:0] $end
$var reg 6 )" wr_ptr [5:0] $end
$upscope $end
$scope module u_fsm $end
$var wire 1 & clk $end
$var wire 24 *" csr_addr [23:0] $end
$var wire 16 +" csr_length [15:0] $end
$var wire 8 ," csr_opcode [7:0] $end
$var wire 1 , resetn $end
$var wire 1 A rxfifo_full $end
$var wire 1 < shifter_busy $end
$var wire 1 ; shifter_data_ready $end
$var wire 1 : shifter_data_req $end
$var wire 1 8 shifter_done $end
$var wire 8 -" shifter_rxbyte [7:0] $end
$var wire 1 L start $end
$var wire 1 6 txfifo_empty $end
$var wire 8 ." txfifo_rdata [7:0] $end
$var parameter 32 /" ADDR_BITS $end
$var parameter 32 0" DATA_BITS $end
$var parameter 3 1" DONE_STATE $end
$var parameter 3 2" DUMMY $end
$var parameter 3 3" IDLE $end
$var parameter 32 4" OPCODE_BITS $end
$var parameter 3 5" SEND_ADDR $end
$var parameter 3 6" SEND_OPCODE $end
$var parameter 3 7" STREAM_RX $end
$var parameter 3 8" STREAM_TX $end
$var reg 1 9" busy $end
$var reg 16 :" byte_count [15:0] $end
$var reg 6 ;" chunk_cycles [5:0] $end
$var reg 32 <" chunk_data [31:0] $end
$var reg 1 # cs_n $end
$var reg 3 =" cur [2:0] $end
$var reg 1 % done $end
$var reg 1 E fsm_quad $end
$var reg 1 F load_chunk $end
$var reg 3 >" next [2:0] $end
$var reg 8 ?" rxfifo_wdata [7:0] $end
$var reg 1 ? rxfifo_wr $end
$var reg 1 9 shifter_dir $end
$var reg 1 4 txfifo_rd $end
$upscope $end
$upscope $end
$scope task apb_read $end
$var reg 32 @" addr [31:0] $end
$upscope $end
$scope task apb_write $end
$var reg 32 A" addr [31:0] $end
$var reg 32 B" data [31:0] $end
$upscope $end
$scope task wait_done $end
$upscope $end
$upscope $end
$enddefinitions $end
$comment Show the parameter values. $end
$dumpall
b11 8"
b100 7"
b1 6"
b10 5"
b1000 4"
b0 3"
b110 2"
b101 1"
b1000 0"
b11000 /"
b100000 '"
b1000 &"
b101 %"
b100000 p
b1000 o
b101 n
$end
#0
$dumpvars
bx B"
bx A"
bx @"
b0 ?"
b0 >"
b0 ="
b0 <"
b0 ;"
b0 :"
09"
bx ."
b0 -"
b0 ,"
b0 +"
b0 *"
bx )"
bx ("
bx $"
bx #"
b0 ""
bx !"
b0 ~
b0 }
b0 |
b0 {
0z
0y
b0 x
b0 w
b0 v
b0 u
b0 t
b0 s
bx r
bx q
bx m
bx l
bx k
bx j
bx i
bx h
bx g
b0 f
bx e
b0 d
b0 c
b10000 b
b0 a
0`
b1 _
b0 ^
b0 ]
b0 \
bx [
bx Z
bx Y
b0 X
b1 W
b1 V
b0 U
0T
b1 S
0R
0Q
b0 P
0O
bx N
0M
0L
b0 K
0J
b0 I
b0 H
b0 G
0F
0E
b0 D
0C
xB
xA
b0 @
0?
0>
0=
0<
0;
0:
09
08
b0 7
x6
x5
04
bx 3
bx 2
01
bx 0
b0 /
x.
bx -
0,
0+
bx *
0)
0(
bx '
0&
0%
b0 $
1#
0"
b0 !
$end
#40000
b1 m
b10 l
b11 k
b0 #"
b0 $"
b0 g
b0 N
b0 [
b0 h
b0 e
b0 i
16
05
b0 )"
b0 ("
1B
0A
b0 j
b0 r
b0 q
1&
#80000
0&
#100000
b110 B"
b100 A"
1,
#120000
1&
#121000
b100 0
b100 Y
b110 *
b110 2
b110 Z
b100 '
1+
1)
#160000
0&
#200000
b0 b
b100 ^
1&
#201000
1C
1(
#240000
0&
#280000
b110 b
b110 P
b110 a
b110 ,"
1&
#281000
0C
b100100001 B"
b10 -
0.
b0 A"
0(
0)
#320000
0&
#360000
1&
#361000
b0 0
b0 Y
b100100001 *
b100100001 2
b100100001 Z
b0 '
1)
#400000
0&
#440000
b10000 b
b0 ^
1&
#441000
1C
1(
#480000
0&
#520000
b1 >"
b10 V
b100001 b
1L
b10 S
b10 W
b10 _
1Q
1&
#521000
0C
0(
0)
#560000
0&
#600000
b1000 H
b1000 v
b1000 ;"
b110000000000000000000000000 G
b110000000000000000000000000 u
b110000000000000000000000000 <"
1F
0#
19"
0L
b1 ="
1&
#640000
0&
#680000
b0 G
b0 u
b0 <"
b0 H
b0 v
b0 ;"
0F
0#
1z
1<
b1000 w
b1000 x
b110000000000000000000000000 ~
1&
#720000
0&
#760000
b1 X
1&
#800000
0&
#840000
1"
1=
b0 X
1&
#880000
0&
#920000
b1 X
0=
1&
#960000
0&
#1000000
0"
1>
b0 X
1&
#1040000
0&
#1080000
b1 X
0>
b111 x
b1100000000000000000000000000 ~
1&
#1120000
0&
#1160000
1"
1=
b0 X
1&
#1200000
0&
#1240000
b1 X
0=
1&
#1280000
0&
#1320000
0"
1>
b0 X
1&
#1360000
0&
#1400000
b1 X
0>
1:
b110 x
b11000000000000000000000000000 ~
1&
#1440000
0&
#1480000
0:
1"
1=
b0 X
1&
#1520000
0&
#1560000
b1 X
0=
1&
#1600000
0&
#1640000
0"
1>
b0 X
1&
#1680000
0&
#1720000
b1 X
0>
b101 x
b110000000000000000000000000000 ~
1&
#1760000
0&
#1800000
1"
1=
b0 X
1&
#1840000
0&
#1880000
b1 X
0=
1&
#1920000
0&
#1960000
0"
1>
b0 X
1&
#2000000
0&
#2040000
b1 X
0>
b100 x
b1100000000000000000000000000000 ~
1&
#2080000
0&
#2120000
1"
1=
b0 X
1&
#2160000
0&
#2200000
b1 X
0=
1&
#2240000
0&
#2280000
0"
1>
b0 X
1&
#2320000
0&
#2360000
b0x t
b0x !
b0x /
b0x s
b1 X
0>
b11 x
b1 {
b11000000000000000000000000000000 ~
1&
#2400000
0&
#2440000
1"
1=
b0 X
1&
#2480000
0&
#2520000
b1 X
0=
1&
#2560000
0&
#2600000
0"
1>
b0 X
1&
#2640000
0&
#2680000
b1 X
0>
b10 x
b10000000000000000000000000000000 ~
1&
#2720000
0&
#2760000
1"
1=
b0 X
1&
#2800000
0&
#2840000
b1 X
0=
1&
#2880000
0&
#2920000
0"
1>
b0 X
1&
#2960000
0&
#3000000
b0 t
b0 !
b0 /
b0 s
b1 X
0>
b1 x
b0 {
b0 ~
1&
#3040000
0&
#3080000
1"
1=
b0 X
1&
#3120000
0&
#3160000
b1 X
0=
1&
#3200000
0&
#3240000
0"
1>
b0 X
1&
#3280000
0&
#3320000
b101 >"
0#
b1 X
0>
0z
18
0<
b0 x
1&
#3360000
0&
#3400000
b0 >"
1%
1#
08
b101 ="
b0 X
1&
#3440000
0&
#3480000
0%
09"
1`
b0 ="
1&
#3481000
b101 B"
b100 A"
#3520000
0&
#3560000
1&
#3561000
b100 0
b100 Y
b101 *
b101 2
b101 Z
b100 '
1)
#3600000
0&
#3640000
b110 b
b100 ^
1&
#3641000
1C
1(
#3680000
0&
#3720000
b101 b
b101 P
b101 a
b101 ,"
1&
#3721000
0C
b1 B"
b10000 A"
0(
0)
#3760000
0&
#3800000
1&
#3801000
b10000 0
b10000 Y
b1 *
b1 2
b1 Z
b10000 '
1)
#3840000
0&
#3880000
b0 b
b10000 ^
1&
#3881000
1C
1(
#3920000
0&
#3960000
b1 b
b1 I
b1 d
b1 +"
1&
#3961000
0C
b100100001 B"
b0 A"
0(
0)
#4000000
0&
#4040000
1&
#4041000
b0 0
b0 Y
b100100001 *
b100100001 2
b100100001 Z
b0 '
1)
#4080000
0&
#4120000
b100001 b
b0 ^
1&
#4121000
1C
1(
#4160000
0&
#4200000
b1 >"
1L
1&
#4201000
0C
0(
0)
#4240000
0&
#4280000
b1000 H
b1000 v
b1000 ;"
b101000000000000000000000000 G
b101000000000000000000000000 u
b101000000000000000000000000 <"
1F
0#
19"
0L
b1 :"
b1 ="
1&
#4320000
0&
#4360000
b0 G
b0 u
b0 <"
b0 H
b0 v
b0 ;"
0F
0#
1z
1<
b1000 x
b101000000000000000000000000 ~
1&
#4400000
0&
#4440000
b1 X
1&
#4480000
0&
#4520000
1"
1=
b0 X
1&
#4560000
0&
#4600000
b1 X
0=
1&
#4640000
0&
#4680000
0"
1>
b0 X
1&
#4720000
0&
#4760000
b1 X
0>
b111 x
b1010000000000000000000000000 ~
1&
#4800000
0&
#4840000
1"
1=
b0 X
1&
#4880000
0&
#4920000
b1 X
0=
1&
#4960000
0&
#5000000
0"
1>
b0 X
1&
#5040000
0&
#5080000
b1 X
0>
1:
b110 x
b10100000000000000000000000000 ~
1&
#5120000
0&
#5160000
0:
1"
1=
b0 X
1&
#5200000
0&
#5240000
b1 X
0=
1&
#5280000
0&
#5320000
0"
1>
b0 X
1&
#5360000
0&
#5400000
b1 X
0>
b101 x
b101000000000000000000000000000 ~
1&
#5440000
0&
#5480000
1"
1=
b0 X
1&
#5520000
0&
#5560000
b1 X
0=
1&
#5600000
0&
#5640000
0"
1>
b0 X
1&
#5680000
0&
#5720000
b1 X
0>
b100 x
b1010000000000000000000000000000 ~
1&
#5760000
0&
#5800000
1"
1=
b0 X
1&
#5840000
0&
#5880000
b1 X
0=
1&
#5920000
0&
#5960000
0"
1>
b0 X
1&
#6000000
0&
#6040000
b0x t
b0x !
b0x /
b0x s
b1 X
0>
b11 x
b1 {
b10100000000000000000000000000000 ~
1&
#6080000
0&
#6120000
1"
1=
b0 X
1&
#6160000
0&
#6200000
b1 X
0=
1&
#6240000
0&
#6280000
0"
1>
b0 X
1&
#6320000
0&
#6360000
b0 t
b0 !
b0 /
b0 s
b1 X
0>
b10 x
b0 {
b1000000000000000000000000000000 ~
1&
#6400000
0&
#6440000
1"
1=
b0 X
1&
#6480000
0&
#6520000
b1 X
0=
1&
#6560000
0&
#6600000
0"
1>
b0 X
1&
#6640000
0&
#6680000
b0x t
b0x !
b0x /
b0x s
b1 X
0>
b1 x
b1 {
b10000000000000000000000000000000 ~
1&
#6720000
0&
#6760000
1"
1=
b0 X
1&
#6800000
0&
#6840000
b1 X
0=
1&
#6880000
0&
#6920000
0"
1>
b0 X
1&
#6960000
0&
#7000000
b100 >"
0#
b0 t
b0 !
b0 /
b0 s
b1 X
0>
0z
18
0<
b0 x
b0 {
b0 ~
1&
#7040000
0&
#7080000
b1000 H
b1000 v
b1000 ;"
1F
19
0#
08
b100 ="
b0 X
1&
#7120000
0&
#7160000
b0 H
b0 v
b0 ;"
0F
19
0#
1<
b1000 x
1&
#7200000
0&
#7240000
b1 X
1&
#7280000
0&
#7320000
1"
1=
b0 X
1&
#7360000
0&
#7400000
b1 X
0=
1&
#7440000
0&
#7480000
0"
1>
b0 X
1&
#7520000
0&
#7560000
b111 x
b1 X
0>
1&
#7600000
0&
#7640000
1"
1=
b0 X
1&
#7680000
0&
#7720000
b1 X
0=
1&
#7760000
0&
#7800000
0"
1>
b0 X
1&
#7840000
0&
#7880000
b110 x
b1 X
0>
1&
#7920000
0&
#7960000
1"
1=
b0 X
1&
#8000000
0&
#8040000
b1 X
0=
1&
#8080000
0&
#8120000
0"
1>
b0 X
1&
#8160000
0&
#8200000
b101 x
b1 X
0>
1&
#8240000
0&
#8280000
1"
1=
b0 X
1&
#8320000
0&
#8360000
b1 X
0=
1&
#8400000
0&
#8440000
0"
1>
b0 X
1&
#8480000
0&
#8520000
b100 x
b1 X
0>
1&
#8560000
0&
#8600000
1"
1=
b0 X
1&
#8640000
0&
#8680000
b1 X
0=
1&
#8720000
0&
#8760000
0"
1>
b0 X
1&
#8800000
0&
#8840000
b11 x
b1 X
0>
1&
#8880000
0&
#8920000
1"
1=
b0 X
1&
#8960000
0&
#9000000
b1 X
0=
1&
#9040000
0&
#9080000
0"
1>
b0 X
1&
#9120000
0&
#9160000
b10 x
b1 X
0>
1&
#9200000
0&
#9240000
1"
1=
b0 X
1&
#9280000
0&
#9320000
b1 X
0=
1&
#9360000
0&
#9400000
0"
1>
b0 X
1&
#9440000
0&
#9480000
b1 x
b1 X
0>
1&
#9520000
0&
#9560000
1"
1=
b0 X
1&
#9600000
0&
#9640000
1;
b1 X
0=
1&
#9680000
0&
#9720000
19
0#
0"
1>
b0 X
b0 :"
0;
1&
#9760000
0&
#9800000
b101 >"
1?
19
0#
18
0<
b0 x
b1 X
0>
1&
#9840000
0&
#9880000
b0 >"
1%
0?
09
1#
b1 g
b0 X
b101 ="
08
0B
b1 j
b1 r
1&
#9920000
0&
#9960000
0%
09"
b0 ="
1&
#9961000
b1100 @"
#10000000
0&
#10040000
1&
#10041000
b1100 0
b1100 Y
b1100 '
0+
1)
#10080000
0&
#10120000
b1 b
b1100 ^
1&
#10121000
b1 $
b1 D
b1 \
1C
1(
#10160000
0&
#10200000
b0 $
b0 D
b0 \
0C
b10011111 B"
b100 A"
0(
0)
1&
#10240000
0&
#10280000
1&
#10281000
b100 0
b100 Y
b10011111 *
b10011111 2
b10011111 Z
b100 '
1+
1)
#10320000
0&
#10360000
b101 b
b100 ^
1&
#10361000
1C
1(
#10400000
0&
#10440000
b10011111 b
b10011111 P
b10011111 a
b10011111 ,"
1&
#10441000
0C
b100100001 B"
b0 A"
0(
0)
#10480000
0&
#10520000
1&
#10521000
b0 0
b0 Y
b100100001 *
b100100001 2
b100100001 Z
b0 '
1)
#10560000
0&
#10600000
b100001 b
b0 ^
1&
#10601000
1C
1(
#10640000
0&
#10680000
b1 >"
1L
1&
#10681000
0C
0(
0)
#10720000
0&
#10760000
b1000 H
b1000 v
b1000 ;"
b10011111000000000000000000000000 G
b10011111000000000000000000000000 u
b10011111000000000000000000000000 <"
1F
0#
19"
b11 :"
b1 ="
0L
1&
#10800000
0&
#10840000
b0x t
b0x !
b0x /
b0x s
b0 G
b0 u
b0 <"
b0 H
b0 v
b0 ;"
0F
0#
b1 {
1z
1<
b1000 x
b10011111000000000000000000000000 ~
1&
#10880000
0&
#10920000
b1 X
1&
#10960000
0&
#11000000
1"
1=
b0 X
1&
#11040000
0&
#11080000
b1 X
0=
1&
#11120000
0&
#11160000
0"
1>
b0 X
1&
#11200000
0&
#11240000
b0 t
b0 !
b0 /
b0 s
b111 x
b0 {
b111110000000000000000000000000 ~
b1 X
0>
1&
#11280000
0&
#11320000
1"
1=
b0 X
1&
#11360000
0&
#11400000
b1 X
0=
1&
#11440000
0&
#11480000
0"
1>
b0 X
1&
#11520000
0&
#11560000
1:
b110 x
b1111100000000000000000000000000 ~
b1 X
0>
1&
#11600000
0&
#11640000
1"
1=
b0 X
0:
1&
#11680000
0&
#11720000
b1 X
0=
1&
#11760000
0&
#11800000
0"
1>
b0 X
1&
#11840000
0&
#11880000
b0x t
b0x !
b0x /
b0x s
b101 x
b1 {
b11111000000000000000000000000000 ~
b1 X
0>
1&
#11920000
0&
#11960000
1"
1=
b0 X
1&
#12000000
0&
#12040000
b1 X
0=
1&
#12080000
0&
#12120000
0"
1>
b0 X
1&
#12160000
0&
#12200000
b100 x
b11110000000000000000000000000000 ~
b1 X
0>
1&
#12240000
0&
#12280000
1"
1=
b0 X
1&
#12320000
0&
#12360000
b1 X
0=
1&
#12400000
0&
#12440000
0"
1>
b0 X
1&
#12480000
0&
#12520000
b11 x
b11100000000000000000000000000000 ~
b1 X
0>
1&
#12560000
0&
#12600000
1"
1=
b0 X
1&
#12640000
0&
#12680000
b1 X
0=
1&
#12720000
0&
#12760000
0"
1>
b0 X
1&
#12800000
0&
#12840000
b10 x
b11000000000000000000000000000000 ~
b1 X
0>
1&
#12880000
0&
#12920000
1"
1=
b0 X
1&
#12960000
0&
#13000000
b1 X
0=
1&
#13040000
0&
#13080000
0"
1>
b0 X
1&
#13120000
0&
#13160000
b1 x
b10000000000000000000000000000000 ~
b1 X
0>
1&
#13200000
0&
#13240000
1"
1=
b0 X
1&
#13280000
0&
#13320000
b1 X
0=
1&
#13360000
0&
#13400000
0"
1>
b0 X
1&
#13440000
0&
#13480000
b100 >"
0#
b0 t
b0 !
b0 /
b0 s
0z
18
0<
b0 x
b0 {
b0 ~
b1 X
0>
1&
#13520000
0&
#13560000
b11000 H
b11000 v
b11000 ;"
1F
19
0#
b0 X
b100 ="
08
1&
#13600000
0&
#13640000
b0 H
b0 v
b0 ;"
0F
19
0#
1<
b11000 w
b11000 x
1&
#13680000
0&
#13720000
b1 X
1&
#13760000
0&
#13800000
1"
1=
b0 X
1&
#13840000
0&
#13880000
b1 X
0=
1&
#13920000
0&
#13960000
0"
1>
b0 X
1&
#14000000
0&
#14040000
b1 X
0>
b10111 x
1&
#14080000
0&
#14120000
1"
1=
b0 X
1&
#14160000
0&
#14200000
b1 X
0=
1&
#14240000
0&
#14280000
0"
1>
b0 X
1&
#14320000
0&
#14360000
b1 X
0>
b10110 x
1&
#14400000
0&
#14440000
1"
1=
b0 X
1&
#14480000
0&
#14520000
b1 X
0=
1&
#14560000
0&
#14600000
0"
1>
b0 X
1&
#14640000
0&
#14680000
b1 X
0>
b10101 x
1&
#14720000
0&
#14760000
1"
1=
b0 X
1&
#14800000
0&
#14840000
b1 X
0=
1&
#14880000
0&
#14920000
0"
1>
b0 X
1&
#14960000
0&
#15000000
b1 X
0>
b10100 x
1&
#15040000
0&
#15080000
1"
1=
b0 X
1&
#15120000
0&
#15160000
b1 X
0=
1&
#15200000
0&
#15240000
0"
1>
b0 X
1&
#15280000
0&
#15320000
b1 X
0>
b10011 x
1&
#15360000
0&
#15400000
1"
1=
b0 X
1&
#15440000
0&
#15480000
b1 X
0=
1&
#15520000
0&
#15560000
0"
1>
b0 X
1&
#15600000
0&
#15640000
b1 X
0>
b10010 x
1&
#15680000
0&
#15720000
1"
1=
b0 X
1&
#15760000
0&
#15800000
b1 X
0=
1&
#15840000
0&
#15880000
0"
1>
b0 X
1&
#15920000
0&
#15960000
b1 X
0>
b10001 x
1&
#16000000
0&
#16040000
1"
1=
b0 X
1&
#16080000
0&
#16120000
b1 X
0=
1;
1&
#16160000
0&
#16200000
19
0#
0;
b10 :"
0"
1>
b0 X
1&
#16240000
0&
#16280000
b1 X
0>
b10000 x
1&
#16320000
0&
#16360000
1"
1=
b0 X
1&
#16400000
0&
#16440000
b1 X
0=
1&
#16480000
0&
#16520000
0"
1>
b0 X
1&
#16560000
0&
#16600000
b1 X
0>
b1111 x
1&
#16640000
0&
#16680000
1"
1=
b0 X
1&
#16720000
0&
#16760000
b1 X
0=
1&
#16800000
0&
#16840000
0"
1>
b0 X
1&
#16880000
0&
#16920000
b1 X
0>
b1110 x
1&
#16960000
0&
#17000000
1"
1=
b0 X
1&
#17040000
0&
#17080000
b1 X
0=
1&
#17120000
0&
#17160000
0"
1>
b0 X
1&
#17200000
0&
#17240000
b1 X
0>
b1101 x
1&
#17280000
0&
#17320000
1"
1=
b0 X
1&
#17360000
0&
#17400000
b1 X
0=
1&
#17440000
0&
#17480000
0"
1>
b0 X
1&
#17520000
0&
#17560000
b1 X
0>
b1100 x
1&
#17600000
0&
#17640000
1"
1=
b0 X
1&
#17680000
0&
#17720000
b1 X
0=
1&
#17760000
0&
#17800000
0"
1>
b0 X
1&
#17840000
0&
#17880000
b1 X
0>
b1011 x
1&
#17920000
0&
#17960000
1"
1=
b0 X
1&
#18000000
0&
#18040000
b1 X
0=
1&
#18080000
0&
#18120000
0"
1>
b0 X
1&
#18160000
0&
#18200000
b1 X
0>
b1010 x
1&
#18240000
0&
#18280000
1"
1=
b0 X
1&
#18320000
0&
#18360000
b1 X
0=
1&
#18400000
0&
#18440000
0"
1>
b0 X
1&
#18480000
0&
#18520000
b1 X
0>
b1001 x
1&
#18560000
0&
#18600000
1"
1=
b0 X
1&
#18640000
0&
#18680000
b1 X
0=
1;
1&
#18720000
0&
#18760000
19
0#
0;
b1 :"
0"
1>
b0 X
1&
#18800000
0&
#18840000
b1 X
0>
b1000 x
1&
#18880000
0&
#18920000
1"
1=
b0 X
1&
#18960000
0&
#19000000
b1 X
0=
1&
#19040000
0&
#19080000
0"
1>
b0 X
1&
#19120000
0&
#19160000
b1 X
0>
b111 x
1&
#19200000
0&
#19240000
1"
1=
b0 X
1&
#19280000
0&
#19320000
b1 X
0=
1&
#19360000
0&
#19400000
0"
1>
b0 X
1&
#19440000
0&
#19480000
b1 X
0>
b110 x
1&
#19520000
0&
#19560000
1"
1=
b0 X
1&
#19600000
0&
#19640000
b1 X
0=
1&
#19680000
0&
#19720000
0"
1>
b0 X
1&
#19760000
0&
#19800000
b1 X
0>
b101 x
1&
#19840000
0&
#19880000
1"
1=
b0 X
1&
#19920000
0&
#19960000
b1 X
0=
1&
#20000000
0&
#20040000
0"
1>
b0 X
1&
#20080000
0&
#20120000
b1 X
0>
b100 x
1&
#20160000
0&
#20200000
1"
1=
b0 X
1&
#20240000
0&
#20280000
b1 X
0=
1&
#20320000
0&
#20360000
0"
1>
b0 X
1&
#20400000
0&
#20440000
b1 X
0>
b11 x
1&
#20480000
0&
#20520000
1"
1=
b0 X
1&
#20560000
0&
#20600000
b1 X
0=
1&
#20640000
0&
#20680000
0"
1>
b0 X
1&
#20720000
0&
#20760000
b1 X
0>
b10 x
1&
#20800000
0&
#20840000
1"
1=
b0 X
1&
#20880000
0&
#20920000
b1 X
0=
1&
#20960000
0&
#21000000
0"
1>
b0 X
1&
#21040000
0&
#21080000
b1 X
0>
b1 x
1&
#21120000
0&
#21160000
1"
1=
b0 X
1&
#21200000
0&
#21240000
b1 X
0=
1;
1&
#21280000
0&
#21320000
19
0#
0;
b0 :"
0"
1>
b0 X
1&
#21360000
0&
#21400000
b101 >"
1?
19
0#
b1 X
0>
18
0<
b0 x
1&
#21440000
0&
#21480000
b0 >"
1%
0?
09
1#
b10 g
08
b101 ="
b0 X
b10 j
b10 r
1&
#21520000
0&
#21560000
0%
09"
b0 ="
1&
#21600000
0&
#21640000
1&
#21641000
b1100 0
b1100 Y
b1100 '
0+
1)
#21680000
0&
#21720000
b1 b
b1100 ^
1&
#21721000
b1 $
b1 D
b1 \
1C
1(
#21760000
0&
#21800000
b0 $
b0 D
b0 \
0C
b1101011 B"
b100 A"
0(
0)
1&
#21840000
0&
#21880000
1&
#21881000
b100 0
b100 Y
b1101011 *
b1101011 2
b1101011 Z
b100 '
1+
1)
#21920000
0&
#21960000
b10011111 b
b100 ^
1&
#21961000
1C
1(
#22000000
0&
#22040000
b1101011 b
b1101011 P
b1101011 a
b1101011 ,"
1&
#22041000
0C
b0 B"
b1000 A"
0(
0)
#22080000
0&
#22120000
1&
#22121000
b1000 0
b1000 Y
b0 *
b0 2
b0 Z
b1000 '
1)
#22160000
0&
#22200000
b0 b
b1000 ^
1&
#22201000
1C
1(
#22240000
0&
#22280000
1&
#22281000
0C
b100 B"
b10000 A"
0(
0)
#22320000
0&
#22360000
1&
#22361000
b10000 0
b10000 Y
b100 *
b100 2
b100 Z
b10000 '
1)
#22400000
0&
#22440000
b1 b
b10000 ^
1&
#22441000
1C
1(
#22480000
0&
#22520000
b100 b
b100 I
b100 d
b100 +"
1&
#22521000
0C
b100100011 B"
1.
b0 A"
0(
0)
#22560000
0&
#22600000
1&
#22601000
b0 0
b0 Y
b100100011 *
b100100011 2
b100100011 Z
b0 '
1)
#22640000
0&
#22680000
b100001 b
b0 ^
1&
#22681000
1C
1(
#22720000
0&
#22760000
b1 >"
b100011 b
1L
1O
1&
#22761000
0C
0(
0)
#22800000
0&
#22840000
b1000 H
b1000 v
b1000 ;"
b1101011000000000000000000000000 G
b1101011000000000000000000000000 u
b1101011000000000000000000000000 <"
1F
0#
19"
0L
b100 :"
b1 ="
1&
#22880000
0&
#22920000
b0 G
b0 u
b0 <"
b0 H
b0 v
b0 ;"
0F
0#
1z
1<
b1000 w
b1000 x
b1101011000000000000000000000000 ~
1&
#22960000
0&
#23000000
b1 X
1&
#23040000
0&
#23080000
1"
1=
b0 X
1&
#23120000
0&
#23160000
b1 X
0=
1&
#23200000
0&
#23240000
0"
1>
b0 X
1&
#23280000
0&
