Verilog/dumps/tb_uart.vcd
$date
	Sun Apr  5 16:38:57 2026
$end
$version
	Icarus Verilog
$end
$timescale
	1ps
$end
$scope module tb_uart $end
$var wire 1 ! pready $end
$var wire 1 " tx $end
$var wire 1 # pslverr $end
$var wire 32 $ prdata [31:0] $end
$var parameter 32 % BASE $end
$var parameter 33 & BRR_ADDR $end
$var parameter 33 ' CR_ADDR $end
$var parameter 33 ( RDR_ADDR $end
$var parameter 32 ) RXNE $end
$var parameter 33 * SR_ADDR $end
$var parameter 32 + TC $end
$var parameter 33 , TDR_ADDR $end
$var parameter 32 - TXE $end
$var reg 32 . apb_rdata [31:0] $end
$var reg 1 / clk $end
$var reg 32 0 paddr [31:0] $end
$var reg 1 1 penable $end
$var reg 1 2 psel $end
$var reg 32 3 pwdata [31:0] $end
$var reg 1 4 pwrite $end
$var reg 1 5 resetn $end
$scope module dut $end
$var wire 1 6 apb_access $end
$var wire 1 7 apb_read $end
$var wire 1 8 apb_write $end
$var wire 1 9 brr_en_wire $end
$var wire 1 : cr_en_wire $end
$var wire 32 ; paddr [31:0] $end
$var wire 1 / pclk $end
$var wire 1 1 penable $end
$var wire 1 ! pready $end
$var wire 1 5 presetn $end
$var wire 1 2 psel $end
$var wire 32 < pwdata [31:0] $end
$var wire 1 4 pwrite $end
$var wire 1 = rdr_ren_wire $end
$var wire 1 > tdr_en_wire $end
$var wire 1 ? uart_reset $end
$var wire 1 " tx $end
$var wire 9 @ tdr_in_wire [8:0] $end
$var wire 8 A sr_out_wire [7:0] $end
$var wire 1 " rx $end
$var wire 9 B rdr_out_wire [8:0] $end
$var wire 8 C offset [7:0] $end
$var wire 8 D cr_in_wire [7:0] $end
$var wire 16 E brr_in_wire [15:0] $end
$var parameter 32 F BASE_ADDR $end
$var reg 32 G prdata [31:0] $end
$var reg 1 # pslverr $end
$scope module core_uart $end
$var wire 1 9 BRR_en $end
$var wire 16 H BRR_in [15:0] $end
$var wire 1 : CR_en $end
$var wire 8 I CR_in [7:0] $end
$var wire 9 J RDR_out [8:0] $end
$var wire 1 = RDR_ren $end
$var wire 1 > TDR_en $end
$var wire 9 K TDR_in [8:0] $end
$var wire 1 / clk $end
$var wire 1 L decoded_bit $end
$var wire 1 M load_tdr_to_shift $end
$var wire 1 ? reset $end
$var wire 1 N rx_frame_done $end
$var wire 1 O samples_mixed $end
$var wire 1 P tx_frame_done $end
$var wire 1 " rx $end
$var wire 1 Q baud_tick_16x $end
$var wire 1 R UE $end
$var wire 1 S TE $end
$var wire 8 T SR_out [7:0] $end
$var wire 1 U RE $end
$var wire 1 V PS $end
$var wire 1 W PCE $end
$var wire 1 X M $end
$var wire 1 Y IE_TXE $end
$var wire 1 Z IE_RXNE $end
$var parameter 3 [ RX_DATA $end
$var parameter 3 \ RX_IDLE $end
$var parameter 3 ] RX_PARITY $end
$var parameter 3 ^ RX_START $end
$var parameter 3 _ RX_STOP $end
$var parameter 3 ` TX_DATA $end
$var parameter 3 a TX_IDLE $end
$var parameter 3 b TX_PARITY $end
$var parameter 3 c TX_START $end
$var parameter 3 d TX_STOP $end
$var reg 16 e BRR_reg [15:0] $end
$var reg 8 f CR1_reg [7:0] $end
$var reg 9 g RDR_reg [8:0] $end
$var reg 9 h TDR_reg [8:0] $end
$var reg 1 i fe_flag $end
$var reg 1 j idle_flag $end
$var reg 8 k idle_timeout [7:0] $end
$var reg 1 l ne_flag $end
$var reg 1 m owe_flag $end
$var reg 1 n pe_flag $end
$var reg 4 o rx_bit_ptr [3:0] $end
$var reg 1 p rx_parity_bit $end
$var reg 4 q rx_s_tick_cnt [3:0] $end
$var reg 3 r rx_samples [2:0] $end
$var reg 9 s rx_shift_reg [8:0] $end
$var reg 3 t rx_state [2:0] $end
$var reg 1 u rxne_flag $end
$var reg 1 v tc_flag $end
$var reg 1 w temp_ne_flag $end
$var reg 1 " tx $end
$var reg 4 x tx_bit_ptr [3:0] $end
$var reg 4 y tx_s_tick_cnt [3:0] $end
$var reg 9 z tx_shift_reg [8:0] $end
$var reg 3 { tx_state [2:0] $end
$var reg 1 | txe_flag $end
$scope module baud_gen_inst $end
$var wire 16 } baud_rate_reg [15:0] $end
$var wire 1 / clk $end
$var wire 1 ? reset $end
$var reg 1 Q baud_tick $end
$var reg 16 ~ counter [15:0] $end
$upscope $end
$upscope $end
$upscope $end
$scope task apb_read $end
$var reg 32 !" addr [31:0] $end
$upscope $end
$scope task apb_write $end
$var reg 32 "" addr [31:0] $end
$var reg 32 #" data [31:0] $end
$upscope $end
$scope task wait_sr_bit $end
$var integer 32 $" bit_idx [31:0] $end
$var integer 32 %" timeout [31:0] $end
$upscope $end
$upscope $end
$enddefinitions $end
$comment Show the parameter values. $end
$dumpall
b100 d
b1 c
b11 b
b0 a
b10 `
b100 _
b1 ^
b11 ]
b0 \
b10 [
b10000001000000 F
b0 -
b10000001001000 ,
b10 +
b10000001000000 *
b1 )
b10000001000100 (
b10000001001100 '
b10000001010000 &
b10000001000000 %
$end
#0
$dumpvars
bx %"
bx $"
bx #"
bx ""
bx !"
b0 ~
b0 }
1|
b0 {
bx z
b0 y
bx x
0w
0v
0u
b0 t
b0 s
bx r
b0 q
xp
bx o
0n
0m
0l
bx k
0j
0i
b0 h
b0 g
b0 f
b0 e
0Z
0Y
0X
0W
0V
0U
b1 T
0S
0R
0Q
0P
xO
0N
0M
xL
b0 K
b0 J
b0 I
b0 H
b0 G
b0 E
b0 D
b11000000 C
b0 B
b1 A
b0 @
1?
0>
0=
b0 <
b0 ;
0:
09
08
07
06
05
04
b0 3
02
01
b0 0
0/
b0 .
b0 $
0#
1"
1!
$end
#10000
1/
#20000
0/
#30000
1/
#40000
0?
0/
b100 #"
b10000001010000 ""
15
#50000
b1 ~
1/
#51000
b100 D
b100 I
b100 E
b100 H
b100 @
b100 K
b10000 C
b100 3
b100 <
b10000001010000 0
b10000001010000 ;
14
12
#60000
0/
#70000
b10 ~
1/
#71000
19
18
16
11
#80000
0/
#90000
b100 e
b100 }
b11 ~
1/
#91000
09
08
06
b111 #"
b10000001001100 ""
04
01
02
#100000
0/
#110000
1Q
b0 ~
1/
#111000
b111 D
b111 I
b111 E
b111 H
b111 @
b111 K
b1100 C
b111 3
b111 <
b10000001001100 0
b10000001001100 ;
14
12
#120000
0/
#130000
0Q
b1 ~
1/
#131000
1:
18
16
11
#140000
0/
#150000
1U
1S
1R
b10 ~
b111 f
1/
#151000
0:
08
06
b10000001000000 !"
04
01
02
#160000
0/
#170000
b11 ~
1/
#171000
b0 C
b10000001000000 0
b10000001000000 ;
12
#180000
0/
#190000
1Q
b0 ~
1/
#191000
b1 $
b1 G
17
16
11
#200000
0/
#210000
0Q
b1 ~
b1 .
1/
#211000
b0 $
b0 G
07
06
b1010101 #"
b10000001001000 ""
01
02
#220000
0/
#230000
b10 ~
1/
#231000
b1010101 D
b1010101 I
b1010101 E
b1010101 H
b1010101 @
b1010101 K
b1000 C
b1010101 3
b1010101 <
b10000001001000 0
b10000001001000 ;
14
12
#240000
0/
#250000
b11 ~
1/
#251000
1>
18
16
11
#260000
0/
#270000
1M
1Q
b0 ~
b0 A
b0 T
0|
b1010101 h
1/
#271000
0>
08
06
b0 %"
b0 .
b10 $"
04
01
02
#280000
0/
#290000
0M
b1 {
b1010101 z
b1 A
b1 T
1|
0Q
b1 ~
1/
#291000
b0 C
b10000001000000 0
b10000001000000 ;
12
#300000
0/
#310000
b10 ~
1/
#311000
b1 $
b1 G
17
16
11
#320000
0/
#330000
b11 ~
b1 .
1/
#331000
b0 $
b0 G
07
06
b1 %"
01
02
#340000
0/
#350000
1Q
b0 ~
1/
#351000
12
#360000
0/
#370000
b1 y
0"
0Q
b1 ~
1/
#371000
b1 $
b1 G
17
16
11
#380000
0/
#390000
b10 ~
1/
#391000
b0 $
b0 G
07
06
b10 %"
01
02
#400000
0/
#410000
b11 ~
1/
#411000
12
#420000
0/
#430000
1Q
b0 ~
1/
#431000
b1 $
b1 G
17
16
11
#440000
0/
#450000
b0 k
b1 t
b10 y
0Q
b1 ~
1/
#451000
b0 $
b0 G
07
06
b11 %"
01
02
#460000
0/
#470000
b10 ~
1/
#471000
12
#480000
0/
#490000
b11 ~
1/
#491000
b1 $
b1 G
17
16
11
#500000
0/
#510000
1Q
b0 ~
1/
#511000
b0 $
b0 G
07
06
b100 %"
01
02
#520000
0/
#530000
b1 q
b11 y
0Q
b1 ~
1/
#531000
12
#540000
0/
#550000
b10 ~
1/
#551000
b1 $
b1 G
17
16
11
#560000
0/
#570000
b11 ~
1/
#571000
b0 $
b0 G
07
06
b101 %"
01
02
#580000
0/
#590000
1Q
b0 ~
1/
#591000
12
#600000
0/
#610000
b10 q
b100 y
0Q
b1 ~
1/
#611000
b1 $
b1 G
17
16
11
#620000
0/
#630000
b10 ~
1/
#631000
b0 $
b0 G
07
06
b110 %"
01
02
#640000
0/
#650000
b11 ~
1/
#651000
12
#660000
0/
#670000
1Q
b0 ~
1/
#671000
b1 $
b1 G
17
16
11
#680000
0/
#690000
b11 q
b101 y
0Q
b1 ~
1/
#691000
b0 $
b0 G
07
06
b111 %"
01
02
#700000
0/
#710000
b10 ~
1/
#711000
12
#720000
0/
#730000
b11 ~
1/
#731000
b1 $
b1 G
17
16
11
#740000
0/
#750000
1Q
b0 ~
1/
#751000
b0 $
b0 G
07
06
b1000 %"
01
02
#760000
0/
#770000
b100 q
b110 y
0Q
b1 ~
1/
#771000
12
#780000
0/
#790000
b10 ~
1/
#791000
b1 $
b1 G
17
16
11
#800000
0/
#810000
b11 ~
1/
#811000
b0 $
b0 G
07
06
b1001 %"
01
02
#820000
0/
#830000
1Q
b0 ~
1/
#831000
12
#840000
0/
#850000
b101 q
b111 y
0Q
b1 ~
1/
#851000
b1 $
b1 G
17
16
11
#860000
0/
#870000
b10 ~
1/
#871000
b0 $
b0 G
07
06
b1010 %"
01
02
#880000
0/
#890000
b11 ~
1/
#891000
12
#900000
0/
#910000
1Q
b0 ~
1/
#911000
b1 $
b1 G
17
16
11
#920000
0/
#930000
b110 q
b1000 y
0Q
b1 ~
1/
#931000
b0 $
b0 G
07
06
b1011 %"
01
02
#940000
0/
#950000
b10 ~
1/
#951000
12
#960000
0/
#970000
b11 ~
1/
#971000
b1 $
b1 G
17
16
11
#980000
0/
#990000
1Q
b0 ~
1/
#991000
b0 $
b0 G
07
06
b1100 %"
01
02
#1000000
0/
#1010000
b111 q
b1001 y
0Q
b1 ~
1/
#1011000
12
#1020000
0/
#1030000
b10 ~
1/
#1031000
b1 $
b1 G
17
16
11
#1040000
0/
#1050000
b11 ~
1/
#1051000
b0 $
b0 G
07
06
b1101 %"
01
02
#1060000
0/
#1070000
1Q
b0 ~
1/
#1071000
12
#1080000
0/
#1090000
b1000 q
b1010 y
0Q
b1 ~
1/
#1091000
b1 $
b1 G
17
16
11
#1100000
0/
#1110000
b10 ~
1/
#1111000
b0 $
b0 G
07
06
b1110 %"
01
02
#1120000
0/
#1130000
b11 ~
1/
#1131000
12
#1140000
0/
#1150000
1Q
b0 ~
1/
#1151000
b1 $
b1 G
17
16
11
#1160000
0/
#1170000
b1001 q
b1011 y
0Q
b1 ~
1/
#1171000
b0 $
b0 G
07
06
b1111 %"
01
02
#1180000
0/
#1190000
b10 ~
1/
#1191000
12
#1200000
0/
#1210000
b11 ~
1/
#1211000
b1 $
b1 G
17
16
11
#1220000
0/
#1230000
1Q
b0 ~
1/
#1231000
b0 $
b0 G
07
06
b10000 %"
01
02
#1240000
0/
#1250000
b1010 q
b1100 y
0Q
b1 ~
1/
#1251000
12
#1260000
0/
#1270000
b10 ~
1/
#1271000
b1 $
b1 G
17
16
11
#1280000
0/
#1290000
b11 ~
1/
#1291000
b0 $
b0 G
07
06
b10001 %"
01
02
#1300000
0/
#1310000
1Q
b0 ~
1/
#1311000
12
#1320000
0/
#1330000
b1011 q
b1101 y
0Q
b1 ~
1/
#1331000
b1 $
b1 G
17
16
11
#1340000
0/
#1350000
b10 ~
1/
#1351000
b0 $
b0 G
07
06
b10010 %"
01
02
#1360000
0/
#1370000
b11 ~
1/
#1371000
12
#1380000
0/
#1390000
1Q
b0 ~
1/
#1391000
b1 $
b1 G
17
16
11
#1400000
0/
#1410000
b1100 q
b1110 y
0Q
b1 ~
1/
#1411000
b0 $
b0 G
07
06
b10011 %"
01
02
#1420000
0/
#1430000
b10 ~
1/
#1431000
12
#1440000
0/
#1450000
b11 ~
1/
#1451000
b1 $
b1 G
17
16
11
#1460000
0/
#1470000
1Q
b0 ~
1/
#1471000
b0 $
b0 G
07
06
b10100 %"
01
02
#1480000
0/
#1490000
b1101 q
b1111 y
0Q
b1 ~
1/
#1491000
12
#1500000
0/
#1510000
b10 ~
1/
#1511000
b1 $
b1 G
17
16
11
#1520000
0/
#1530000
b11 ~
1/
#1531000
b0 $
b0 G
07
06
b10101 %"
01
02
#1540000
0/
#1550000
1Q
b0 ~
1/
#1551000
12
#1560000
0/
#1570000
b1110 q
b0 x
b10 {
b0 y
0Q
b1 ~
1/
#1571000
b1 $
b1 G
17
16
11
#1580000
0/
#1590000
b10 ~
1/
#1591000
b0 $
b0 G
07
06
b10110 %"
01
02
#1600000
0/
#1610000
b11 ~
1/
#1611000
12
#1620000
0/
#1630000
1Q
b0 ~
1/
#1631000
b1 $
b1 G
17
16
11
#1640000
0/
#1650000
b1111 q
b1 y
1"
0Q
b1 ~
1/
#1651000
b0 $
b0 G
07
06
b10111 %"
01
02
#1660000
0/
#1670000
b10 ~
1/
#1671000
12
#1680000
0/
#1690000
b11 ~
1/
#1691000
b1 $
b1 G
17
16
11
#1700000
0/
#1710000
1Q
b0 ~
1/
#1711000
b0 $
b0 G
07
06
b11000 %"
01
02
#1720000
0/
#1730000
b0 o
b10 t
b0 q
b10 y
0Q
b1 ~
1/
#1731000
12
#1740000
0/
#1750000
b10 ~
1/
#1751000
b1 $
b1 G
17
16
11
#1760000
0/
#1770000
b11 ~
1/
#1771000
b0 $
b0 G
07
06
b11001 %"
01
02
#1780000
0/
#1790000
1Q
b0 ~
1/
#1791000
12
#1800000
0/
#1810000
b1 q
b11 y
0Q
b1 ~
1/
#1811000
b1 $
b1 G
17
16
11
#1820000
0/
#1830000
b10 ~
1/
#1831000
b0 $
b0 G
07
06
b11010 %"
01
02
#1840000
0/
#1850000
b11 ~
1/
#1851000
12
#1860000
0/
#1870000
1Q
b0 ~
1/
#1871000
b1 $
b1 G
17
16
11
#1880000
0/
#1890000
b10 q
b100 y
0Q
b1 ~
1/
#1891000
b0 $
b0 G
07
06
b11011 %"
01
02
#1900000
0/
#1910000
b10 ~
1/
#1911000
12
#1920000
0/
#1930000
b11 ~
1/
#1931000
b1 $
b1 G
17
16
11
#1940000
0/
#1950000
1Q
b0 ~
1/
#1951000
b0 $
b0 G
07
06
b11100 %"
01
02
#1960000
0/
#1970000
b11 q
b101 y
0Q
b1 ~
1/
#1971000
12
#1980000
0/
#1990000
b10 ~
1/
#1991000
b1 $
b1 G
17
16
11
#2000000
0/
#2010000
b11 ~
1/
#2011000
b0 $
b0 G
07
06
b11101 %"
01
02
#2020000
0/
#2030000
1Q
b0 ~
1/
#2031000
12
#2040000
0/
#2050000
b100 q
b110 y
0Q
b1 ~
1/
#2051000
b1 $
b1 G
17
16
11
#2060000
0/
#2070000
b10 ~
1/
#2071000
b0 $
b0 G
07
06
b11110 %"
01
02
#2080000
0/
#2090000
b11 ~
1/
#2091000
12
#2100000
0/
#2110000
1Q
b0 ~
1/
#2111000
b1 $
b1 G
17
16
11
#2120000
0/
#2130000
b101 q
b111 y
0Q
b1 ~
1/
#2131000
b0 $
b0 G
07
06
b11111 %"
01
02
#2140000
0/
#2150000
b10 ~
1/
#2151000
12
#2160000
0/
#2170000
b11 ~
1/
#2171000
b1 $
b1 G
17
16
11
#2180000
0/
#2190000
1Q
b0 ~
1/
#2191000
b0 $
b0 G
07
06
b100000 %"
01
02
#2200000
0/
#2210000
b110 q
b1000 y
0Q
b1 ~
1/
#2211000
12
#2220000
0/
#2230000
b10 ~
1/
#2231000
b1 $
b1 G
17
16
11
#2240000
0/
#2250000
b11 ~
1/
#2251000
b0 $
b0 G
07
06
b100001 %"
01
02
#2260000
0/
#2270000
1Q
b0 ~
1/
#2271000
12
#2280000
0/
#2290000
b111 q
b1001 y
0Q
b1 ~
1/
#2291000
b1 $
b1 G
17
16
11
#2300000
0/
#2310000
b10 ~
1/
#2311000
b0 $
b0 G
07
06
b100010 %"
01
02
#2320000
0/
#2330000
b11 ~
1/
#2331000
12
#2340000
0/
#2350000
1Q
b0 ~
1/
#2351000
b1 $
b1 G
17
16
11
#2360000
0/
#2370000
b1000 q
bx1 r
b1010 y
0Q
b1 ~
1/
#2371000
b0 $
b0 G
07
06
b100011 %"
01
02
#2380000
0/
#2390000
b10 ~
1/
#2391000
12
#2400000
0/
#2410000
b11 ~
1/
#2411000
b1 $
b1 G
17
16
11
#2420000
0/
#2430000
1Q
b0 ~
1/
#2431000
b0 $
b0 G
07
06
b100100 %"
01
02
#2440000
0/
#2450000
1L
b1001 q
bx11 r
b1011 y
0Q
b1 ~
1/
#2451000
12
#2460000
0/
#2470000
b10 ~
1/
#2471000
b1 $
b1 G
17
16
11
#2480000
0/
#2490000
b11 ~
1/
#2491000
b0 $
b0 G
07
06
b100101 %"
01
02
#2500000
0/
#2510000
1Q
b0 ~
1/
#2511000
12
#2520000
0/
#2530000
0O
b1010 q
b111 r
b1100 y
0Q
b1 ~
1/
#2531000
b1 $
b1 G
17
16
11
#2540000
0/
#2550000
b10 ~
1/
#2551000
b0 $
b0 G
07
06
b100110 %"
01
02
#2560000
0/
#2570000
b11 ~
1/
#2571000
12
#2580000
0/
#2590000
1Q
b0 ~
1/
#2591000
b1 $
b1 G
17
16
11
#2600000
0/
#2610000
b1011 q
b1101 y
0Q
b1 ~
1/
#2611000
b0 $
b0 G
07
06
b100111 %"
01
02
#2620000
0/
#2630000
b10 ~
1/
#2631000
12
#2640000
0/
#2650000
b11 ~
1/
#2651000
b1 $
b1 G
17
16
11
#2660000
0/
#2670000
1Q
b0 ~
1/
#2671000
b0 $
b0 G
07
06
b101000 %"
01
02
#2680000
0/
#2690000
b1100 q
b1110 y
0Q
b1 ~
1/
#2691000
12
#2700000
0/
#2710000
b10 ~
1/
#2711000
b1 $
b1 G
17
16
11
#2720000
0/
#2730000
b11 ~
1/
#2731000
b0 $
b0 G
07
06
b101001 %"
01
02
#2740000
0/
#2750000
1Q
b0 ~
1/
#2751000
12
#2760000
0/
#2770000
b1101 q
b1111 y
0Q
b1 ~
1/
#2771000
b1 $
b1 G
17
16
11
#2780000
0/
#2790000
b10 ~
1/
#2791000
b0 $
b0 G
07
06
b101010 %"
01
02
#2800000
0/
#2810000
b11 ~
1/
#2811000
12
#2820000
0/
#2830000
1Q
b0 ~
1/
#2831000
b1 $
b1 G
17
16
11
#2840000
0/
#2850000
b1110 q
b1 x
b0 y
0Q
b1 ~
1/
#2851000
b0 $
b0 G
07
06
b101011 %"
01
02
#2860000
0/
#2870000
b10 ~
1/
#2871000
12
#2880000
0/
#2890000
b11 ~
1/
#2891000
b1 $
b1 G
17
16
11
#2900000
0/
#2910000
1Q
b0 ~
1/
#2911000
b0 $
b0 G
07
06
b101100 %"
01
02
#2920000
0/
#2930000
b1111 q
b1 y
0"
0Q
b1 ~
1/
#2931000
12
#2940000
0/
#2950000
b10 ~
1/
#2951000
b1 $
b1 G
17
16
11
#2960000
0/
#2970000
b11 ~
1/
#2971000
b0 $
b0 G
07
06
b101101 %"
01
02
#2980000
0/
#2990000
1Q
b0 ~
1/
#2991000
12
#3000000
0/
#3010000
b1 o
b1 s
b0 q
b10 y
0Q
b1 ~
1/
#3011000
b1 $
b1 G
17
16
11
#3020000
0/
#3030000
b10 ~
1/
#3031000
b0 $
b0 G
07
06
b101110 %"
01
02
#3040000
0/
#3050000
b11 ~
1/
#3051000
12
#3060000
0/
#3070000
1Q
b0 ~
1/
#3071000
b1 $
b1 G
17
16
11
#3080000
0/
#3090000
b1 q
b11 y
0Q
b1 ~
1/
#3091000
b0 $
b0 G
07
06
b101111 %"
01
02
#3100000
0/
#3110000
b10 ~
1/
#3111000
12
#3120000
0/
#3130000
b11 ~
1/
#3131000
b1 $
b1 G
17
16
11
#3140000
0/
#3150000
1Q
b0 ~
1/
#3151000
b0 $
b0 G
07
06
b110000 %"
01
02
#3160000
0/
#3170000
b10 q
b100 y
0Q
b1 ~
1/
#3171000
12
#3180000
0/
#3190000
b10 ~
1/
#3191000
b1 $
b1 G
17
16
11
#3200000
0/
#3210000
b11 ~
1/
#3211000
b0 $
b0 G
07
06
b110001 %"
01
02
#3220000
0/
#3230000
1Q
b0 ~
1/
#3231000
12
#3240000
0/
#3250000
b11 q
b101 y
0Q
b1 ~
1/
#3251000
b1 $
b1 G
17
16
11
#3260000
0/
#3270000
b10 ~
1/
#3271000
b0 $
b0 G
07
06
b110010 %"
01
02
#3280000
0/
#3290000
b11 ~
1/
#3291000
12
#3300000
0/
#3310000
1Q
b0 ~
1/
#3311000
b1 $
b1 G
17
16
11
#3320000
0/
#3330000
b100 q
b110 y
0Q
b1 ~
1/
#3331000
b0 $
b0 G
07
06
b110011 %"
01
02
#3340000
0/
#3350000
b10 ~
1/
#3351000
12
#3360000
0/
#3370000
b11 ~
1/
#3371000
b1 $
b1 G
17
16
11
#3380000
0/
#3390000
1Q
b0 ~
1/
#3391000
b0 $
b0 G
07
06
b110100 %"
01
02
#3400000
0/
#3410000
b101 q
b111 y
0Q
b1 ~
1/
#3411000
12
#3420000
0/
#3430000
b10 ~
1/
#3431000
b1 $
b1 G
17
16
11
#3440000
0/
#3450000
b11 ~
1/
#3451000
b0 $
b0 G
07
06
b110101 %"
01
02
#3460000
0/
#3470000
1Q
b0 ~
1/
#3471000
12
#3480000
0/
#3490000
b110 q
b1000 y
0Q
b1 ~
1/
#3491000
b1 $
b1 G
17
16
11
#3500000
0/
#3510000
b10 ~
1/
#3511000
b0 $
b0 G
07
06
b110110 %"
01
02
#3520000
0/
#3530000
b11 ~
1/
#3531000
12
#3540000
0/
#3550000
1Q
b0 ~
1/
#3551000
b1 $
b1 G
17
16
11
#3560000
0/
#3570000
b111 q
b1001 y
0Q
b1 ~
1/
#3571000
b0 $
b0 G
07
06
b110111 %"
01
02
#3580000
0/
#3590000
b10 ~
1/
#3591000
12
#3600000
0/
#3610000
b11 ~
1/
#3611000
b1 $
b1 G
17
16
11
#3620000
0/
#3630000
1Q
b0 ~
1/
#3631000
b0 $
b0 G
07
06
b111000 %"
01
02
#3640000
0/
#3650000
1O
b1000 q
b110 r
b1010 y
0Q
b1 ~
1/
#3651000
12
#3660000
0/
#3670000
b10 ~
1/
#3671000
b1 $
b1 G
17
16
11
#3680000
0/
#3690000
b11 ~
1/
#3691000
b0 $
b0 G
07
06
b111001 %"
01
02
#3700000
0/
#3710000
1Q
b0 ~
1/
#3711000
12
#3720000
0/
#3730000
0L
b1001 q
b100 r
b1011 y
0Q
b1 ~
1/
#3731000
b1 $
b1 G
17
16
11
#3740000
0/
#3750000
b10 ~
1/
#3751000
b0 $
b0 G
07
06
b111010 %"
01
02
#3760000
0/
#3770000
b11 ~
1/
#3771000
12
#3780000
0/
#3790000
1Q
b0 ~
1/
#3791000
b1 $
b1 G
17
16
11
#3800000
0/
#3810000
0O
b1010 q
b0 r
b1100 y
0Q
b1 ~
1/
#3811000
b0 $
b0 G
07
06
b111011 %"
01
02
#3820000
0/
#3830000
b10 ~
1/
#3831000
12
#3840000
0/
#3850000
b11 ~
1/
#3851000
b1 $
b1 G
17
16
11
#3860000
0/
#3870000
1Q
b0 ~
1/
#3871000
b0 $
b0 G
07
06
b111100 %"
01
02
#3880000
0/
#3890000
b1011 q
b1101 y
0Q
b1 ~
1/
#3891000
12
#3900000
0/
#3910000
b10 ~
1/
#3911000
b1 $
b1 G
17
16
11
#3920000
0/
#3930000
b11 ~
1/
#3931000
b0 $
b0 G
07
06
b111101 %"
01
02
#3940000
0/
#3950000
1Q
b0 ~
1/
#3951000
12
#3960000
0/
#3970000
b1100 q
b1110 y
0Q
b1 ~
1/
#3971000
b1 $
b1 G
17
16
11
#3980000
0/
#3990000
b10 ~
1/
#3991000
b0 $
b0 G
07
06
b111110 %"
01
02
#4000000
0/
#4010000
b11 ~
1/
#4011000
12
#4020000
0/
#4030000
1Q
b0 ~
1/
#4031000
b1 $
b1 G
17
16
11
#4040000
0/
#4050000
b1101 q
b1111 y
0Q
b1 ~
1/
#4051000
b0 $
b0 G
07
06
b111111 %"
01
02
#4060000
0/
#4070000
b10 ~
1/
#4071000
12
#4080000
0/
#4090000
b11 ~
1/
#4091000
b1 $
b1 G
17
16
11
#4100000
0/
#4110000
1Q
b0 ~
1/
#4111000
b0 $
b0 G
07
06
b1000000 %"
01
02
#4120000
0/
#4130000
b1110 q
b10 x
b0 y
0Q
b1 ~
1/
#4131000
12
#4140000
0/
#4150000
b10 ~
1/
#4151000
b1 $
b1 G
17
16
11
#4160000
0/
#4170000
b11 ~
1/
#4171000
b0 $
b0 G
07
06
b1000001 %"
01
02
#4180000
0/
#4190000
1Q
b0 ~
1/
#4191000
12
#4200000
0/
#4210000
b1111 q
b1 y
1"
0Q
b1 ~
1/
#4211000
b1 $
b1 G
17
16
11
#4220000
0/
#4230000
b10 ~
1/
#4231000
b0 $
b0 G
07
06
b1000010 %"
01
02
#4240000
0/
#4250000
b11 ~
1/
#4251000
12
#4260000
0/
#4270000
1Q
b0 ~
1/
#4271000
b1 $
b1 G
17
16
11
#4280000
0/
#4290000
b10 o
b0 q
b10 y
0Q
b1 ~
1/
#4291000
b0 $
b0 G
07
06
b1000011 %"
01
02
#4300000
0/
#4310000
b10 ~
1/
#4311000
12
#4320000
0/
#4330000
b11 ~
1/
#4331000
b1 $
b1 G
17
16
11
#4340000
0/
#4350000
1Q
b0 ~
1/
#4351000
b0 $
b0 G
07
06
b1000100 %"
01
02
#4360000
0/
#4370000
b1 q
b11 y
0Q
b1 ~
1/
#4371000
12
#4380000
0/
#4390000
b10 ~
1/
#4391000
b1 $
b1 G
17
16
11
#4400000
0/
#4410000
b11 ~
1/
#4411000
b0 $
b0 G
07
06
b1000101 %"
01
02
#4420000
0/
#4430000
1Q
b0 ~
1/
#4431000
12
#4440000
0/
#4450000
b10 q
b100 y
0Q
b1 ~
1/
#4451000
b1 $
b1 G
17
16
11
#4460000
0/
#4470000
b10 ~
1/
#4471000
b0 $
b0 G
07
06
b1000110 %"
01
02
#4480000
0/
#4490000
b11 ~
1/
#4491000
12
#4500000
0/
#4510000
1Q
b0 ~
1/
#4511000
b1 $
b1 G
17
16
11
#4520000
0/
#4530000
b11 q
b101 y
0Q
b1 ~
1/
#4531000
b0 $
b0 G
07
06
b1000111 %"
01
02
#4540000
0/
#4550000
b10 ~
1/
#4551000
12
#4560000
0/
#4570000
b11 ~
1/
#4571000
b1 $
b1 G
17
16
11
#4580000
0/
#4590000
1Q
b0 ~
1/
#4591000
b0 $
b0 G
07
06
b1001000 %"
01
02
#4600000
0/
#4610000
b100 q
b110 y
0Q
b1 ~
1/
#4611000
12
#4620000
0/
#4630000
b10 ~
1/
#4631000
b1 $
b1 G
17
16
11
#4640000
0/
#4650000
b11 ~
1/
#4651000
b0 $
b0 G
07
06
b1001001 %"
01
02
#4660000
0/
#4670000
1Q
b0 ~
1/
#4671000
12
#4680000
0/
#4690000
b101 q
b111 y
0Q
b1 ~
1/
#4691000
b1 $
b1 G
17
16
11
#4700000
0/
#4710000
b10 ~
1/
#4711000
b0 $
b0 G
07
06
b1001010 %"
01
02
#4720000
0/
#4730000
b11 ~
1/
#4731000
12
#4740000
0/
#4750000
1Q
b0 ~
1/
#4751000
b1 $
b1 G
17
16
11
#4760000
0/
#4770000
b110 q
b1000 y
0Q
b1 ~
1/
#4771000
b0 $
b0 G
07
06
b1001011 %"
01
02
#4780000
0/
#4790000
b10 ~
1/
#4791000
12
#4800000
0/
#4810000
b11 ~
1/
#4811000
b1 $
b1 G
17
16
11
#4820000
0/
#4830000
1Q
b0 ~
1/
#4831000
b0 $
b0 G
07
06
b1001100 %"
01
02
#4840000
0/
#4850000
b111 q
b1001 y
0Q
b1 ~
1/
#4851000
12
#4860000
0/
#4870000
b10 ~
1/
#4871000
b1 $
b1 G
17
16
11
#4880000
0/
#4890000
b11 ~
1/
#4891000
b0 $
b0 G
07
06
b1001101 %"
01
02
#4900000
0/
#4910000
1Q
b0 ~
1/
#4911000
12
#4920000
0/
#4930000
1O
b1000 q
b1 r
b1010 y
0Q
b1 ~
1/
#4931000
b1 $
b1 G
17
16
11
#4940000
0/
#4950000
b10 ~
1/
#4951000
b0 $
b0 G
07
06
b1001110 %"
01
02
#4960000
0/
#4970000
b11 ~
1/
#4971000
12
#4980000
0/
#4990000
1Q
b0 ~
1/
#4991000
b1 $
b1 G
17
16
11
#5000000
0/
#5010000
1L
b1001 q
b11 r
b1011 y
0Q
b1 ~
1/
#5011000
b0 $
b0 G
07
06
b1001111 %"
01
02
#5020000
0/
#5030000
b10 ~
1/
#5031000
12
#5040000
0/
#5050000
b11 ~
1/
#5051000
b1 $
b1 G
17
16
11
#5060000
0/
#5070000
1Q
b0 ~
1/
#5071000
b0 $
b0 G
07
06
b1010000 %"
01
02
#5080000
0/
#5090000
0O
b1010 q
b111 r
b1100 y
0Q
b1 ~
1/
#5091000
12
#5100000
0/
#5110000
b10 ~
1/
#5111000
b1 $
b1 G
17
16
11
#5120000
0/
#5130000
b11 ~
1/
#5131000
b0 $
b0 G
07
06
b1010001 %"
01
02
#5140000
0/
#5150000
1Q
b0 ~
1/
#5151000
12
#5160000
0/
#5170000
b1011 q
b1101 y
0Q
b1 ~
1/
