Verilog/dumps/tb_UART_module.vcd
$date
	Sun Apr  5 15:10:49 2026
$end
$version
	Icarus Verilog
$end
$timescale
	1ps
$end
$scope module tb_UART_module $end
$var wire 1 ! tx $end
$var wire 8 " SR_out [7:0] $end
$var wire 1 # RXNE_flag $end
$var wire 9 $ RDR_out [8:0] $end
$var wire 1 % PE_flag $end
$var wire 1 & OWE_flag $end
$var wire 1 ' NE_flag $end
$var wire 1 ( IDLE_flag $end
$var wire 1 ) FE_flag $end
$var reg 1 * BRR_en $end
$var reg 16 + BRR_in [15:0] $end
$var reg 1 , CR_en $end
$var reg 8 - CR_in [7:0] $end
$var reg 1 . RDR_ren $end
$var reg 1 / TDR_en $end
$var reg 9 0 TDR_in [8:0] $end
$var reg 1 1 clk $end
$var reg 1 2 reset $end
$var reg 1 3 rx $end
$scope module uut $end
$var wire 1 * BRR_en $end
$var wire 16 4 BRR_in [15:0] $end
$var wire 1 , CR_en $end
$var wire 8 5 CR_in [7:0] $end
$var wire 9 6 RDR_out [8:0] $end
$var wire 1 . RDR_ren $end
$var wire 1 / TDR_en $end
$var wire 9 7 TDR_in [8:0] $end
$var wire 1 1 clk $end
$var wire 1 8 decoded_bit $end
$var wire 1 9 load_tdr_to_shift $end
$var wire 1 2 reset $end
$var wire 1 3 rx $end
$var wire 1 : rx_frame_done $end
$var wire 1 ; samples_mixed $end
$var wire 1 < tx_frame_done $end
$var wire 1 = baud_tick_16x $end
$var wire 1 > UE $end
$var wire 1 ? TE $end
$var wire 8 @ SR_out [7:0] $end
$var wire 1 A RE $end
$var wire 1 B PS $end
$var wire 1 C PCE $end
$var wire 1 D M $end
$var wire 1 E IE_TXE $end
$var wire 1 F IE_RXNE $end
$var parameter 3 G RX_DATA $end
$var parameter 3 H RX_IDLE $end
$var parameter 3 I RX_PARITY $end
$var parameter 3 J RX_START $end
$var parameter 3 K RX_STOP $end
$var parameter 3 L TX_DATA $end
$var parameter 3 M TX_IDLE $end
$var parameter 3 N TX_PARITY $end
$var parameter 3 O TX_START $end
$var parameter 3 P TX_STOP $end
$var reg 16 Q BRR_reg [15:0] $end
$var reg 8 R CR1_reg [7:0] $end
$var reg 9 S RDR_reg [8:0] $end
$var reg 9 T TDR_reg [8:0] $end
$var reg 1 U fe_flag $end
$var reg 1 V idle_flag $end
$var reg 8 W idle_timeout [7:0] $end
$var reg 1 X ne_flag $end
$var reg 1 Y owe_flag $end
$var reg 1 Z pe_flag $end
$var reg 4 [ rx_bit_ptr [3:0] $end
$var reg 1 \ rx_parity_bit $end
$var reg 4 ] rx_s_tick_cnt [3:0] $end
$var reg 3 ^ rx_samples [2:0] $end
$var reg 9 _ rx_shift_reg [8:0] $end
$var reg 3 ` rx_state [2:0] $end
$var reg 1 a rxne_flag $end
$var reg 1 b tc_flag $end
$var reg 1 c temp_ne_flag $end
$var reg 1 ! tx $end
$var reg 4 d tx_bit_ptr [3:0] $end
$var reg 4 e tx_s_tick_cnt [3:0] $end
$var reg 9 f tx_shift_reg [8:0] $end
$var reg 3 g tx_state [2:0] $end
$var reg 1 h txe_flag $end
$scope module baud_gen_inst $end
$var wire 16 i baud_rate_reg [15:0] $end
$var wire 1 1 clk $end
$var wire 1 2 reset $end
$var reg 1 = baud_tick $end
$var reg 16 j counter [15:0] $end
$upscope $end
$upscope $end
$scope task clear_rdr $end
$upscope $end
$scope task config_CR1 $end
$var reg 1 k m $end
$var reg 1 l pce $end
$var reg 1 m ps $end
$var reg 1 n re $end
$var reg 1 o te $end
$var reg 1 p ue $end
$upscope $end
$scope task send_custom_frame $end
$var reg 1 q calc_p $end
$var reg 9 r data [8:0] $end
$var reg 1 s inj_fe $end
$var reg 1 t inj_ne $end
$var reg 1 u inj_pe $end
$var reg 1 v m_val $end
$var reg 1 w pce_val $end
$var reg 1 x ps_val $end
$var integer 32 y i [31:0] $end
$var integer 32 z limit [31:0] $end
$upscope $end
$upscope $end
$enddefinitions $end
$comment Show the parameter values. $end
$dumpall
b100 P
b1 O
b11 N
b0 M
b10 L
b100 K
b1 J
b11 I
b0 H
b10 G
$end
#0
$dumpvars
bx z
bx y
xx
xw
xv
xu
xt
xs
bx r
xq
xp
xo
xn
xm
xl
xk
b0 j
b0 i
1h
b0 g
bx f
b0 e
bx d
0c
0b
0a
b0 `
b0 _
bx ^
b0 ]
x\
bx [
0Z
0Y
0X
bx W
0V
0U
b0 T
b0 S
b0 R
b0 Q
0F
0E
0D
0C
0B
0A
b1 @
0?
0>
0=
0<
x;
0:
09
x8
b0 7
b0 6
b0 5
b0 4
13
12
01
b0 0
0/
0.
b0 -
0,
b0 +
0*
0)
0(
0'
0&
0%
b0 $
0#
b1 "
1!
$end
#5000
11
#10000
01
#15000
11
#20000
01
#25000
11
#30000
01
#35000
11
#40000
01
#45000
11
#50000
01
#55000
11
#60000
01
#65000
11
#70000
01
#75000
11
#80000
01
#85000
11
#90000
01
#95000
11
#100000
01
02
#105000
b1 j
11
#110000
01
#115000
b10 j
11
#120000
01
#125000
b11 j
11
#130000
01
#135000
b100 j
11
#140000
01
#145000
b101 j
11
#150000
01
#155000
b110 j
b1010 Q
b1010 i
1*
b1010 +
b1010 4
11
#160000
01
#165000
b111 j
0m
0l
0k
1n
1o
1p
0*
11
#170000
01
#175000
1A
1?
1>
b1000 j
b111 R
1,
b111 -
b111 5
11
#180000
01
#185000
b1001 j
03
0q
b1000 z
0t
0s
0u
0x
0w
0v
b1010101 r
0,
11
#190000
01
#195000
1=
b0 j
11
#200000
01
#205000
b0 W
b1 `
0=
b1 j
11
#210000
01
#215000
b10 j
11
#220000
01
#225000
b11 j
11
#230000
01
#235000
b100 j
11
#240000
01
#245000
b101 j
11
#250000
01
#255000
b110 j
11
#260000
01
#265000
b111 j
11
#270000
01
#275000
b1000 j
11
#280000
01
#285000
b1001 j
11
#290000
01
#295000
1=
b0 j
11
#300000
01
#305000
b1 ]
0=
b1 j
11
#310000
01
#315000
b10 j
11
#320000
01
#325000
b11 j
11
#330000
01
#335000
b100 j
11
#340000
01
#345000
b101 j
11
#350000
01
#355000
b110 j
11
#360000
01
#365000
b111 j
11
#370000
01
#375000
b1000 j
11
#380000
01
#385000
b1001 j
11
#390000
01
#395000
1=
b0 j
11
#400000
01
#405000
b10 ]
0=
b1 j
11
#410000
01
#415000
b10 j
11
#420000
01
#425000
b11 j
11
#430000
01
#435000
b100 j
11
#440000
01
#445000
b101 j
11
#450000
01
#455000
b110 j
11
#460000
01
#465000
b111 j
11
#470000
01
#475000
b1000 j
11
#480000
01
#485000
b1001 j
11
#490000
01
#495000
1=
b0 j
11
#500000
01
#505000
b11 ]
0=
b1 j
11
#510000
01
#515000
b10 j
11
#520000
01
#525000
b11 j
11
#530000
01
#535000
b100 j
11
#540000
01
#545000
b101 j
11
#550000
01
#555000
b110 j
11
#560000
01
#565000
b111 j
11
#570000
01
#575000
b1000 j
11
#580000
01
#585000
b1001 j
11
#590000
01
#595000
1=
b0 j
11
#600000
01
#605000
b100 ]
0=
b1 j
11
#610000
01
#615000
b10 j
11
#620000
01
#625000
b11 j
11
#630000
01
#635000
b100 j
11
#640000
01
#645000
b101 j
11
#650000
01
#655000
b110 j
11
#660000
01
#665000
b111 j
11
#670000
01
#675000
b1000 j
11
#680000
01
#685000
b1001 j
11
#690000
01
#695000
1=
b0 j
11
#700000
01
#705000
b101 ]
0=
b1 j
11
#710000
01
#715000
b10 j
11
#720000
01
#725000
b11 j
11
#730000
01
#735000
b100 j
11
#740000
01
#745000
b101 j
11
#750000
01
#755000
b110 j
11
#760000
01
#765000
b111 j
11
#770000
01
#775000
b1000 j
11
#780000
01
#785000
b1001 j
11
#790000
01
#795000
1=
b0 j
11
#800000
01
#805000
b110 ]
0=
b1 j
11
#810000
01
#815000
b10 j
11
#820000
01
#825000
b11 j
11
#830000
01
#835000
b100 j
11
#840000
01
#845000
b101 j
11
#850000
01
#855000
b110 j
11
#860000
01
#865000
b111 j
11
#870000
01
#875000
b1000 j
11
#880000
01
#885000
b1001 j
11
#890000
01
#895000
1=
b0 j
11
#900000
01
#905000
b111 ]
0=
b1 j
11
#910000
01
#915000
b10 j
11
#920000
01
#925000
b11 j
11
#930000
01
#935000
b100 j
11
#940000
01
#945000
b101 j
11
#950000
01
#955000
b110 j
11
#960000
01
#965000
b111 j
11
#970000
01
#975000
b1000 j
11
#980000
01
#985000
b1001 j
11
#990000
01
#995000
1=
b0 j
11
#1000000
01
#1005000
b1000 ]
0=
b1 j
11
#1010000
01
#1015000
b10 j
11
#1020000
01
#1025000
b11 j
11
#1030000
01
#1035000
b100 j
11
#1040000
01
#1045000
b101 j
11
#1050000
01
#1055000
b110 j
11
#1060000
01
#1065000
b111 j
11
#1070000
01
#1075000
b1000 j
11
#1080000
01
#1085000
b1001 j
11
#1090000
01
#1095000
1=
b0 j
11
#1100000
01
#1105000
b1001 ]
0=
b1 j
11
#1110000
01
#1115000
b10 j
11
#1120000
01
#1125000
b11 j
11
#1130000
01
#1135000
b100 j
11
#1140000
01
#1145000
b101 j
11
#1150000
01
#1155000
b110 j
11
#1160000
01
#1165000
b111 j
11
#1170000
01
#1175000
b1000 j
11
#1180000
01
#1185000
b1001 j
11
#1190000
01
#1195000
1=
b0 j
11
#1200000
01
#1205000
b1010 ]
0=
b1 j
11
#1210000
01
#1215000
b10 j
11
#1220000
01
#1225000
b11 j
11
#1230000
01
#1235000
b100 j
11
#1240000
01
#1245000
b101 j
11
#1250000
01
#1255000
b110 j
11
#1260000
01
#1265000
b111 j
11
#1270000
01
#1275000
b1000 j
11
#1280000
01
#1285000
b1001 j
11
#1290000
01
#1295000
1=
b0 j
11
#1300000
01
#1305000
b1011 ]
0=
b1 j
11
#1310000
01
#1315000
b10 j
11
#1320000
01
#1325000
b11 j
11
#1330000
01
#1335000
b100 j
11
#1340000
01
#1345000
b101 j
11
#1350000
01
#1355000
b110 j
11
#1360000
01
#1365000
b111 j
11
#1370000
01
#1375000
b1000 j
11
#1380000
01
#1385000
b1001 j
11
#1390000
01
#1395000
1=
b0 j
11
#1400000
01
#1405000
b1100 ]
0=
b1 j
11
#1410000
01
#1415000
b10 j
11
#1420000
01
#1425000
b11 j
11
#1430000
01
#1435000
b100 j
11
#1440000
01
#1445000
b101 j
11
#1450000
01
#1455000
b110 j
11
#1460000
01
#1465000
b111 j
11
#1470000
01
#1475000
b1000 j
11
#1480000
01
#1485000
b1001 j
11
#1490000
01
#1495000
1=
b0 j
11
#1500000
01
#1505000
b1101 ]
0=
b1 j
11
#1510000
01
#1515000
b10 j
11
#1520000
01
#1525000
b11 j
11
#1530000
01
#1535000
b100 j
11
#1540000
01
#1545000
b101 j
11
#1550000
01
#1555000
b110 j
11
#1560000
01
#1565000
b111 j
11
#1570000
01
#1575000
b1000 j
11
#1580000
01
#1585000
b1001 j
11
#1590000
01
#1595000
1=
b0 j
11
#1600000
01
#1605000
b1110 ]
0=
b1 j
11
#1610000
01
#1615000
b10 j
11
#1620000
01
#1625000
b11 j
11
#1630000
01
#1635000
b100 j
11
#1640000
01
#1645000
b101 j
11
#1650000
01
#1655000
b110 j
11
#1660000
01
#1665000
b111 j
11
#1670000
01
#1675000
b1000 j
11
#1680000
01
#1685000
b1001 j
11
#1690000
01
#1695000
1=
b0 j
11
#1700000
01
#1705000
b1111 ]
0=
b1 j
11
#1710000
01
#1715000
b10 j
11
#1720000
01
#1725000
b11 j
11
#1730000
01
#1735000
b100 j
11
#1740000
01
#1745000
b101 j
11
#1750000
01
#1755000
b110 j
11
#1760000
01
#1765000
b111 j
11
#1770000
01
#1775000
b1000 j
11
#1780000
01
#1785000
b1001 j
11
13
b0 y
#1790000
01
#1795000
1=
b0 j
11
#1800000
01
#1805000
b0 [
b10 `
b0 ]
0=
b1 j
11
#1810000
01
#1815000
b10 j
11
#1820000
01
#1825000
b11 j
11
#1830000
01
#1835000
b100 j
11
#1840000
01
#1845000
b101 j
11
#1850000
01
#1855000
b110 j
11
#1860000
01
#1865000
b111 j
11
#1870000
01
#1875000
b1000 j
11
#1880000
01
#1885000
b1001 j
11
#1890000
01
#1895000
1=
b0 j
11
#1900000
01
#1905000
b1 ]
0=
b1 j
11
#1910000
01
#1915000
b10 j
11
#1920000
01
#1925000
b11 j
11
#1930000
01
#1935000
b100 j
11
#1940000
01
#1945000
b101 j
11
#1950000
01
#1955000
b110 j
11
#1960000
01
#1965000
b111 j
11
#1970000
01
#1975000
b1000 j
11
#1980000
01
#1985000
b1001 j
11
#1990000
01
#1995000
1=
b0 j
11
#2000000
01
#2005000
b10 ]
0=
b1 j
11
#2010000
01
#2015000
b10 j
11
#2020000
01
#2025000
b11 j
11
#2030000
01
#2035000
b100 j
11
#2040000
01
#2045000
b101 j
11
#2050000
01
#2055000
b110 j
11
#2060000
01
#2065000
b111 j
11
#2070000
01
#2075000
b1000 j
11
#2080000
01
#2085000
b1001 j
11
#2090000
01
#2095000
1=
b0 j
11
#2100000
01
#2105000
b11 ]
0=
b1 j
11
#2110000
01
#2115000
b10 j
11
#2120000
01
#2125000
b11 j
11
#2130000
01
#2135000
b100 j
11
#2140000
01
#2145000
b101 j
11
#2150000
01
#2155000
b110 j
11
#2160000
01
#2165000
b111 j
11
#2170000
01
#2175000
b1000 j
11
#2180000
01
#2185000
b1001 j
11
#2190000
01
#2195000
1=
b0 j
11
#2200000
01
#2205000
b100 ]
0=
b1 j
11
#2210000
01
#2215000
b10 j
11
#2220000
01
#2225000
b11 j
11
#2230000
01
#2235000
b100 j
11
#2240000
01
#2245000
b101 j
11
#2250000
01
#2255000
b110 j
11
#2260000
01
#2265000
b111 j
11
#2270000
01
#2275000
b1000 j
11
#2280000
01
#2285000
b1001 j
11
#2290000
01
#2295000
1=
b0 j
11
#2300000
01
#2305000
b101 ]
0=
b1 j
11
#2310000
01
#2315000
b10 j
11
#2320000
01
#2325000
b11 j
11
#2330000
01
#2335000
b100 j
11
#2340000
01
#2345000
b101 j
11
#2350000
01
#2355000
b110 j
11
#2360000
01
#2365000
b111 j
11
#2370000
01
#2375000
b1000 j
11
#2380000
01
#2385000
b1001 j
11
#2390000
01
#2395000
1=
b0 j
11
#2400000
01
#2405000
b110 ]
0=
b1 j
11
#2410000
01
#2415000
b10 j
11
#2420000
01
#2425000
b11 j
11
#2430000
01
#2435000
b100 j
11
#2440000
01
#2445000
b101 j
11
#2450000
01
#2455000
b110 j
11
#2460000
01
#2465000
b111 j
11
#2470000
01
#2475000
b1000 j
11
#2480000
01
#2485000
b1001 j
11
#2490000
01
#2495000
1=
b0 j
11
#2500000
01
#2505000
b111 ]
0=
b1 j
11
#2510000
01
#2515000
b10 j
11
#2520000
01
#2525000
b11 j
11
#2530000
01
#2535000
b100 j
11
#2540000
01
#2545000
b101 j
11
#2550000
01
#2555000
b110 j
11
#2560000
01
#2565000
b111 j
11
#2570000
01
#2575000
b1000 j
11
#2580000
01
#2585000
b1001 j
11
#2590000
01
#2595000
1=
b0 j
11
#2600000
01
#2605000
b1000 ]
bx1 ^
0=
b1 j
11
#2610000
01
#2615000
b10 j
11
#2620000
01
#2625000
b11 j
11
#2630000
01
#2635000
b100 j
11
#2640000
01
#2645000
b101 j
11
#2650000
01
#2655000
b110 j
11
#2660000
01
#2665000
b111 j
11
#2670000
01
#2675000
b1000 j
11
#2680000
01
#2685000
b1001 j
11
#2690000
01
#2695000
1=
b0 j
11
#2700000
01
#2705000
18
b1001 ]
bx11 ^
0=
b1 j
11
#2710000
01
#2715000
b10 j
11
#2720000
01
#2725000
b11 j
11
#2730000
01
#2735000
b100 j
11
#2740000
01
#2745000
b101 j
11
#2750000
01
#2755000
b110 j
11
#2760000
01
#2765000
b111 j
11
#2770000
01
#2775000
b1000 j
11
#2780000
01
#2785000
b1001 j
11
#2790000
01
#2795000
1=
b0 j
11
#2800000
01
#2805000
0;
b1010 ]
b111 ^
0=
b1 j
11
#2810000
01
#2815000
b10 j
11
#2820000
01
#2825000
b11 j
11
#2830000
01
#2835000
b100 j
11
#2840000
01
#2845000
b101 j
11
#2850000
01
#2855000
b110 j
11
#2860000
01
#2865000
b111 j
11
#2870000
01
#2875000
b1000 j
11
#2880000
01
#2885000
b1001 j
11
#2890000
01
#2895000
1=
b0 j
11
#2900000
01
#2905000
b1011 ]
0=
b1 j
11
#2910000
01
#2915000
b10 j
11
#2920000
01
#2925000
b11 j
11
#2930000
01
#2935000
b100 j
11
#2940000
01
#2945000
b101 j
11
#2950000
01
#2955000
b110 j
11
#2960000
01
#2965000
b111 j
11
#2970000
01
#2975000
b1000 j
11
#2980000
01
#2985000
b1001 j
11
#2990000
01
#2995000
1=
b0 j
11
#3000000
01
#3005000
b1100 ]
0=
b1 j
11
#3010000
01
#3015000
b10 j
11
#3020000
01
#3025000
b11 j
11
#3030000
01
#3035000
b100 j
11
#3040000
01
#3045000
b101 j
11
#3050000
01
#3055000
b110 j
11
#3060000
01
#3065000
b111 j
11
#3070000
01
#3075000
b1000 j
11
#3080000
01
#3085000
b1001 j
11
#3090000
01
#3095000
1=
b0 j
11
#3100000
01
#3105000
b1101 ]
0=
b1 j
11
#3110000
01
#3115000
b10 j
11
#3120000
01
#3125000
b11 j
11
#3130000
01
#3135000
b100 j
11
#3140000
01
#3145000
b101 j
11
#3150000
01
#3155000
b110 j
11
#3160000
01
#3165000
b111 j
11
#3170000
01
#3175000
b1000 j
11
#3180000
01
#3185000
b1001 j
11
#3190000
01
#3195000
1=
b0 j
11
#3200000
01
#3205000
b1110 ]
0=
b1 j
11
#3210000
01
#3215000
b10 j
11
#3220000
01
#3225000
b11 j
11
#3230000
01
#3235000
b100 j
11
#3240000
01
#3245000
b101 j
11
#3250000
01
#3255000
b110 j
11
#3260000
01
#3265000
b111 j
11
#3270000
01
#3275000
b1000 j
11
#3280000
01
#3285000
b1001 j
11
#3290000
01
#3295000
1=
b0 j
11
#3300000
01
#3305000
b1111 ]
0=
b1 j
11
#3310000
01
#3315000
b10 j
11
#3320000
01
#3325000
b11 j
11
#3330000
01
#3335000
b100 j
11
#3340000
01
#3345000
b101 j
11
#3350000
01
#3355000
b110 j
11
#3360000
01
#3365000
b111 j
11
#3370000
01
#3375000
b1000 j
11
#3380000
01
#3385000
b1001 j
11
03
b1 y
#3390000
01
#3395000
1=
b0 j
11
#3400000
01
#3405000
b1 [
b1 _
b0 ]
0=
b1 j
11
#3410000
01
#3415000
b10 j
11
#3420000
01
#3425000
b11 j
11
#3430000
01
#3435000
b100 j
11
#3440000
01
#3445000
b101 j
11
#3450000
01
#3455000
b110 j
11
#3460000
01
#3465000
b111 j
11
#3470000
01
#3475000
b1000 j
11
#3480000
01
#3485000
b1001 j
11
#3490000
01
#3495000
1=
b0 j
11
#3500000
01
#3505000
b1 ]
0=
b1 j
11
#3510000
01
#3515000
b10 j
11
#3520000
01
#3525000
b11 j
11
#3530000
01
#3535000
b100 j
11
#3540000
01
#3545000
b101 j
11
#3550000
01
#3555000
b110 j
11
#3560000
01
#3565000
b111 j
11
#3570000
01
#3575000
b1000 j
11
#3580000
01
#3585000
b1001 j
11
#3590000
01
#3595000
1=
b0 j
11
#3600000
01
#3605000
b10 ]
0=
b1 j
11
#3610000
01
#3615000
b10 j
11
#3620000
01
#3625000
b11 j
11
#3630000
01
#3635000
b100 j
11
#3640000
01
#3645000
b101 j
11
#3650000
01
#3655000
b110 j
11
#3660000
01
#3665000
b111 j
11
#3670000
01
#3675000
b1000 j
11
#3680000
01
#3685000
b1001 j
11
#3690000
01
#3695000
1=
b0 j
11
#3700000
01
#3705000
b11 ]
0=
b1 j
11
#3710000
01
#3715000
b10 j
11
#3720000
01
#3725000
b11 j
11
#3730000
01
#3735000
b100 j
11
#3740000
01
#3745000
b101 j
11
#3750000
01
#3755000
b110 j
11
#3760000
01
#3765000
b111 j
11
#3770000
01
#3775000
b1000 j
11
#3780000
01
#3785000
b1001 j
11
#3790000
01
#3795000
1=
b0 j
11
#3800000
01
#3805000
b100 ]
0=
b1 j
11
#3810000
01
#3815000
b10 j
11
#3820000
01
#3825000
b11 j
11
#3830000
01
#3835000
b100 j
11
#3840000
01
#3845000
b101 j
11
#3850000
01
#3855000
b110 j
11
#3860000
01
#3865000
b111 j
11
#3870000
01
#3875000
b1000 j
11
#3880000
01
#3885000
b1001 j
11
#3890000
01
#3895000
1=
b0 j
11
#3900000
01
#3905000
b101 ]
0=
b1 j
11
#3910000
01
#3915000
b10 j
11
#3920000
01
#3925000
b11 j
11
#3930000
01
#3935000
b100 j
11
#3940000
01
#3945000
b101 j
11
#3950000
01
#3955000
b110 j
11
#3960000
01
#3965000
b111 j
11
#3970000
01
#3975000
b1000 j
11
#3980000
01
#3985000
b1001 j
11
#3990000
01
#3995000
1=
b0 j
11
#4000000
01
#4005000
b110 ]
0=
b1 j
11
#4010000
01
#4015000
b10 j
11
#4020000
01
#4025000
b11 j
11
#4030000
01
#4035000
b100 j
11
#4040000
01
#4045000
b101 j
11
#4050000
01
#4055000
b110 j
11
#4060000
01
#4065000
b111 j
11
#4070000
01
#4075000
b1000 j
11
#4080000
01
#4085000
b1001 j
11
#4090000
01
#4095000
1=
b0 j
11
#4100000
01
#4105000
b111 ]
0=
b1 j
11
#4110000
01
#4115000
b10 j
11
#4120000
01
#4125000
b11 j
11
#4130000
01
#4135000
b100 j
11
#4140000
01
#4145000
b101 j
11
#4150000
01
#4155000
b110 j
11
#4160000
01
#4165000
b111 j
11
#4170000
01
#4175000
b1000 j
11
#4180000
01
#4185000
b1001 j
11
#4190000
01
#4195000
1=
b0 j
11
#4200000
01
#4205000
1;
b1000 ]
b110 ^
0=
b1 j
11
#4210000
01
#4215000
b10 j
11
#4220000
01
#4225000
b11 j
11
#4230000
01
#4235000
b100 j
11
#4240000
01
#4245000
b101 j
11
#4250000
01
#4255000
b110 j
11
#4260000
01
#4265000
b111 j
11
#4270000
01
#4275000
b1000 j
11
#4280000
01
#4285000
b1001 j
11
#4290000
01
#4295000
1=
b0 j
11
#4300000
01
#4305000
08
b1001 ]
b100 ^
0=
b1 j
11
#4310000
01
#4315000
b10 j
11
#4320000
01
#4325000
b11 j
11
#4330000
01
#4335000
b100 j
11
#4340000
01
#4345000
b101 j
11
#4350000
01
#4355000
b110 j
11
#4360000
01
#4365000
b111 j
11
#4370000
01
#4375000
b1000 j
11
#4380000
01
#4385000
b1001 j
11
#4390000
01
#4395000
1=
b0 j
11
#4400000
01
#4405000
0;
b1010 ]
b0 ^
0=
b1 j
11
#4410000
01
#4415000
b10 j
11
#4420000
01
#4425000
b11 j
11
#4430000
01
#4435000
b100 j
11
#4440000
01
#4445000
b101 j
11
#4450000
01
#4455000
b110 j
11
#4460000
01
#4465000
b111 j
11
#4470000
01
#4475000
b1000 j
11
#4480000
01
#4485000
b1001 j
11
#4490000
01
#4495000
1=
b0 j
11
#4500000
01
#4505000
b1011 ]
0=
b1 j
11
#4510000
01
#4515000
b10 j
11
#4520000
01
#4525000
b11 j
11
#4530000
01
#4535000
b100 j
11
#4540000
01
#4545000
b101 j
11
#4550000
01
#4555000
b110 j
11
#4560000
01
#4565000
b111 j
11
#4570000
01
#4575000
b1000 j
11
#4580000
01
#4585000
b1001 j
11
#4590000
01
#4595000
1=
b0 j
11
#4600000
01
#4605000
b1100 ]
0=
b1 j
11
#4610000
01
#4615000
b10 j
11
#4620000
01
#4625000
b11 j
11
#4630000
01
#4635000
b100 j
11
#4640000
01
#4645000
b101 j
11
#4650000
01
#4655000
b110 j
11
#4660000
01
#4665000
b111 j
11
#4670000
01
#4675000
b1000 j
11
#4680000
01
#4685000
b1001 j
11
#4690000
01
#4695000
1=
b0 j
11
#4700000
01
#4705000
b1101 ]
0=
b1 j
11
#4710000
01
#4715000
b10 j
11
#4720000
01
#4725000
b11 j
11
#4730000
01
#4735000
b100 j
11
#4740000
01
#4745000
b101 j
11
#4750000
01
#4755000
b110 j
11
#4760000
01
#4765000
b111 j
11
#4770000
01
#4775000
b1000 j
11
#4780000
01
#4785000
b1001 j
11
#4790000
01
#4795000
1=
b0 j
11
#4800000
01
#4805000
b1110 ]
0=
b1 j
11
#4810000
01
#4815000
b10 j
11
#4820000
01
#4825000
b11 j
11
#4830000
01
#4835000
b100 j
11
#4840000
01
#4845000
b101 j
11
#4850000
01
#4855000
b110 j
11
#4860000
01
#4865000
b111 j
11
#4870000
01
#4875000
b1000 j
11
#4880000
01
#4885000
b1001 j
11
#4890000
01
#4895000
1=
b0 j
11
#4900000
01
#4905000
b1111 ]
0=
b1 j
11
#4910000
01
#4915000
b10 j
11
#4920000
01
#4925000
b11 j
11
#4930000
01
#4935000
b100 j
11
#4940000
01
#4945000
b101 j
11
#4950000
01
#4955000
b110 j
11
#4960000
01
#4965000
b111 j
11
#4970000
01
#4975000
b1000 j
11
#4980000
01
#4985000
b1001 j
11
13
b10 y
#4990000
01
#4995000
1=
b0 j
11
#5000000
01
#5005000
b10 [
b0 ]
0=
b1 j
11
#5010000
01
#5015000
b10 j
11
#5020000
01
#5025000
b11 j
11
#5030000
01
#5035000
b100 j
11
#5040000
01
#5045000
b101 j
11
#5050000
01
#5055000
b110 j
11
#5060000
01
#5065000
b111 j
11
#5070000
01
#5075000
b1000 j
11
#5080000
01
#5085000
b1001 j
11
#5090000
01
#5095000
1=
b0 j
11
#5100000
01
#5105000
b1 ]
0=
b1 j
11
#5110000
01
#5115000
b10 j
11
#5120000
01
#5125000
b11 j
11
#5130000
01
#5135000
b100 j
11
#5140000
01
#5145000
b101 j
11
#5150000
01
#5155000
b110 j
11
#5160000
01
#5165000
b111 j
11
#5170000
01
#5175000
b1000 j
11
#5180000
01
#5185000
b1001 j
11
#5190000
01
#5195000
1=
b0 j
11
#5200000
01
#5205000
b10 ]
0=
b1 j
11
#5210000
01
#5215000
b10 j
11
#5220000
01
#5225000
b11 j
11
#5230000
01
#5235000
b100 j
11
#5240000
01
#5245000
b101 j
11
#5250000
01
#5255000
b110 j
11
#5260000
01
#5265000
b111 j
11
#5270000
01
#5275000
b1000 j
11
#5280000
01
#5285000
b1001 j
11
#5290000
01
#5295000
1=
b0 j
11
#5300000
01
#5305000
b11 ]
0=
b1 j
11
#5310000
01
#5315000
b10 j
11
#5320000
01
#5325000
b11 j
11
#5330000
01
#5335000
b100 j
11
#5340000
01
#5345000
b101 j
11
#5350000
01
#5355000
b110 j
11
#5360000
01
#5365000
b111 j
11
#5370000
01
#5375000
b1000 j
11
#5380000
01
#5385000
b1001 j
11
#5390000
01
#5395000
1=
b0 j
11
#5400000
01
#5405000
b100 ]
0=
b1 j
11
#5410000
01
#5415000
b10 j
11
#5420000
01
#5425000
b11 j
11
#5430000
01
#5435000
b100 j
11
#5440000
01
#5445000
b101 j
11
#5450000
01
#5455000
b110 j
11
#5460000
01
#5465000
b111 j
11
#5470000
01
#5475000
b1000 j
11
#5480000
01
#5485000
b1001 j
11
#5490000
01
#5495000
1=
b0 j
11
#5500000
01
#5505000
b101 ]
0=
b1 j
11
#5510000
01
#5515000
b10 j
11
#5520000
01
#5525000
b11 j
11
#5530000
01
#5535000
b100 j
11
#5540000
01
#5545000
b101 j
11
#5550000
01
#5555000
b110 j
11
#5560000
01
#5565000
b111 j
11
#5570000
01
#5575000
b1000 j
11
#5580000
01
#5585000
b1001 j
11
#5590000
01
#5595000
1=
b0 j
11
#5600000
01
#5605000
b110 ]
0=
b1 j
11
#5610000
01
#5615000
b10 j
11
#5620000
01
#5625000
b11 j
11
#5630000
01
#5635000
b100 j
11
#5640000
01
#5645000
b101 j
11
#5650000
01
#5655000
b110 j
11
#5660000
01
#5665000
b111 j
11
#5670000
01
#5675000
b1000 j
11
#5680000
01
#5685000
b1001 j
11
#5690000
01
#5695000
1=
b0 j
11
#5700000
01
#5705000
b111 ]
0=
b1 j
11
#5710000
01
#5715000
b10 j
11
#5720000
01
#5725000
b11 j
11
#5730000
01
#5735000
b100 j
11
#5740000
01
#5745000
b101 j
11
#5750000
01
#5755000
b110 j
11
#5760000
01
#5765000
b111 j
11
#5770000
01
#5775000
b1000 j
11
#5780000
01
#5785000
b1001 j
11
#5790000
01
#5795000
1=
b0 j
11
#5800000
01
#5805000
1;
b1000 ]
b1 ^
0=
b1 j
11
#5810000
01
#5815000
b10 j
11
#5820000
01
#5825000
b11 j
11
#5830000
01
#5835000
b100 j
11
#5840000
01
#5845000
b101 j
11
#5850000
01
#5855000
b110 j
11
#5860000
01
#5865000
b111 j
11
#5870000
01
#5875000
b1000 j
11
#5880000
01
#5885000
b1001 j
11
#5890000
01
#5895000
1=
b0 j
11
#5900000
01
#5905000
18
b1001 ]
b11 ^
0=
b1 j
11
#5910000
01
#5915000
b10 j
11
#5920000
01
#5925000
b11 j
11
#5930000
01
#5935000
b100 j
11
#5940000
01
#5945000
b101 j
11
#5950000
01
#5955000
b110 j
11
#5960000
01
#5965000
b111 j
11
#5970000
01
#5975000
b1000 j
11
#5980000
01
#5985000
b1001 j
11
#5990000
01
#5995000
1=
b0 j
11
#6000000
01
#6005000
0;
b1010 ]
b111 ^
0=
b1 j
11
#6010000
01
#6015000
b10 j
11
#6020000
01
#6025000
b11 j
11
#6030000
01
#6035000
b100 j
11
#6040000
01
#6045000
b101 j
11
#6050000
01
#6055000
b110 j
11
#6060000
01
#6065000
b111 j
11
#6070000
01
#6075000
b1000 j
11
#6080000
01
#6085000
b1001 j
11
#6090000
01
#6095000
1=
b0 j
11
#6100000
01
#6105000
b1011 ]
0=
b1 j
11
#6110000
01
#6115000
b10 j
11
#6120000
01
#6125000
b11 j
11
#6130000
01
#6135000
b100 j
11
#6140000
01
#6145000
b101 j
11
#6150000
01
#6155000
b110 j
11
#6160000
01
#6165000
b111 j
11
#6170000
01
#6175000
b1000 j
11
#6180000
01
#6185000
b1001 j
11
#6190000
01
